training,testing,validation
0.12938271604938273,0.13422222222222221,0.129
0.42903703703703705,0.43066666666666664,0.445
0.49837037037037035,0.49066666666666664,0.521
0.5098765432098765,0.5146666666666667,0.537
0.5186666666666667,0.52,0.544
0.5253827160493827,0.5248888888888888,0.544
0.530074074074074,0.5306666666666666,0.543
0.5317037037037037,0.5355555555555556,0.547
0.5333333333333333,0.5373333333333333,0.55
0.5336296296296297,0.5373333333333333,0.551
0.5339259259259259,0.5377777777777778,0.551
0.5339753086419753,0.5377777777777778,0.551
0.5340246913580247,0.5377777777777778,0.552
0.5340246913580247,0.5377777777777778,0.552
0.5340246913580247,0.5377777777777778,0.552
0.5340246913580247,0.5377777777777778,0.552
0.534074074074074,0.5377777777777778,0.552
0.534074074074074,0.5377777777777778,0.552
0.534074074074074,0.5377777777777778,0.552
0.5339753086419753,0.5377777777777778,0.552
0.5340246913580247,0.5377777777777778,0.552
0.5340246913580247,0.5377777777777778,0.552
0.5338271604938272,0.5373333333333333,0.551
0.5337777777777778,0.5377777777777778,0.551
0.5337283950617284,0.5377777777777778,0.551
0.5338271604938272,0.5373333333333333,0.551
0.5337777777777778,0.5373333333333333,0.55
0.5338271604938272,0.5373333333333333,0.549
0.5338271604938272,0.5364444444444444,0.55
0.5338765432098765,0.5355555555555556,0.548
0.5338765432098765,0.5346666666666666,0.549
0.534074074074074,0.5346666666666666,0.548
0.5338765432098765,0.5342222222222223,0.551
0.5343703703703704,0.5333333333333333,0.552
0.5348148148148149,0.5333333333333333,0.552
0.5353086419753087,0.5333333333333333,0.551
0.5353580246913581,0.5297777777777778,0.548
0.5355061728395062,0.5297777777777778,0.549
0.5359506172839507,0.5293333333333333,0.548
0.5363456790123456,0.5266666666666666,0.546
0.536641975308642,0.5253333333333333,0.544
0.5365925925925926,0.5231111111111111,0.544
0.5367407407407407,0.5231111111111111,0.539
0.5372345679012346,0.5208888888888888,0.537
0.538074074074074,0.5213333333333333,0.537
0.5385679012345679,0.5204444444444445,0.537
0.5384691358024691,0.5208888888888888,0.535
0.5389135802469136,0.52,0.535
0.5397530864197531,0.5186666666666667,0.536
0.5401975308641975,0.5186666666666667,0.535
0.5403456790123456,0.5164444444444445,0.536
0.540641975308642,0.516,0.534
0.5413333333333333,0.5151111111111111,0.534
0.5416790123456791,0.5128888888888888,0.532
0.5421728395061728,0.5128888888888888,0.53
0.5430617283950617,0.5111111111111111,0.527
0.544,0.5097777777777778,0.526
0.5457283950617284,0.508,0.526
0.5459259259259259,0.5084444444444445,0.526
0.5465679012345679,0.5084444444444445,0.526
0.5470617283950617,0.508,0.524
0.5479506172839507,0.5062222222222222,0.521
0.5487901234567901,0.5048888888888889,0.52
0.5495802469135802,0.5013333333333333,0.518
0.5506666666666666,0.49955555555555553,0.518
0.5518024691358024,0.49822222222222223,0.516
0.5529876543209876,0.49644444444444447,0.516
0.5540246913580247,0.49333333333333335,0.513
0.5546172839506173,0.4928888888888889,0.508
0.555604938271605,0.4911111111111111,0.508
0.5561481481481482,0.48844444444444446,0.507
0.5568888888888889,0.4871111111111111,0.503
0.5577777777777778,0.48533333333333334,0.503
0.5584691358024692,0.4822222222222222,0.504
0.5598024691358024,0.48,0.505
0.5611851851851852,0.4791111111111111,0.505
0.5620740740740741,0.48044444444444445,0.507
0.563604938271605,0.4786666666666667,0.504
0.5644938271604938,0.47555555555555556,0.503
0.5654814814814815,0.4746666666666667,0.502
0.5666172839506173,0.4737777777777778,0.501
0.5678024691358025,0.47333333333333333,0.501
0.5687901234567901,0.47155555555555556,0.5
0.5701234567901234,0.4702222222222222,0.499
0.5712592592592592,0.46844444444444444,0.5
0.5728395061728395,0.4666666666666667,0.5
0.5737777777777778,0.4666666666666667,0.499
0.5752098765432099,0.4662222222222222,0.501
0.5760493827160493,0.464,0.498
0.5770864197530864,0.4648888888888889,0.497
0.5788148148148148,0.464,0.496
0.5796543209876543,0.46355555555555555,0.496
0.5815308641975309,0.46044444444444443,0.493
0.582716049382716,0.46044444444444443,0.492
0.5839012345679012,0.45955555555555555,0.49
0.585283950617284,0.46,0.488
0.5868148148148148,0.46,0.485
0.5880493827160493,0.4573333333333333,0.482
0.5897283950617284,0.4573333333333333,0.479
0.5914567901234568,0.45511111111111113,0.48
0.5925925925925926,0.45555555555555555,0.478
