student_id,learning_object_id,topic_id,course_id,rating,clicks,rating_date
52275,882663,875,FFF2014J,3,4,11
52275,882537,900,FFF2014J,3,4,29
52275,882537,900,FFF2014J,5,6,30
53197,526721,686,FFF2013B,3,4,57
58077,716238,733,FFF2013J,5,6,20
92312,673737,450,DDD2013J,4,5,52
117071,542795,90,BBB2013B,5,7,37
117071,542891,85,BBB2013B,5,7,53
117071,542891,85,BBB2013B,5,7,53
120611,798674,931,GGG2014B,3,4,180
120611,798674,931,GGG2014B,3,4,187
120611,798622,941,GGG2014B,4,5,150
120611,798674,931,GGG2014B,5,6,160
124387,673740,386,DDD2013J,3,4,3
124387,673740,386,DDD2013J,3,4,5
124387,673537,374,DDD2013J,4,5,5
124387,673519,452,DDD2013J,5,6,5
124387,673519,452,DDD2013J,5,7,-16
140108,779089,842,FFF2014B,2,3,54
140108,779620,799,FFF2014B,3,4,-2
140108,779332,823,FFF2014B,5,6,-15
140108,779332,823,FFF2014B,5,7,-18
161878,772729,485,DDD2014B,4,5,-3
165898,798622,941,GGG2014B,4,5,61
165898,798670,938,GGG2014B,4,5,96
166607,882617,902,FFF2014J,3,4,23
166607,882663,875,FFF2014J,4,5,24
195221,913474,243,BBB2014J,3,4,17
195221,913468,234,BBB2014J,4,5,3
195221,913528,228,BBB2014J,4,5,15
195221,913474,243,BBB2014J,4,5,19
195221,913473,223,BBB2014J,5,7,3
200957,547303,303,DDD2013B,1,2,2
200957,547303,303,DDD2013B,1,2,19
203652,543020,94,BBB2013B,2,3,23
203652,542864,106,BBB2013B,4,5,23
237506,674359,442,DDD2013J,1,2,12
237506,674165,422,DDD2013J,1,2,12
237506,673740,386,DDD2013J,3,4,8
237506,673981,436,DDD2013J,3,4,8
237506,674266,455,DDD2013J,5,6,10
247653,832779,622,EEE2014J,2,3,-11
247653,832668,623,EEE2014J,2,3,-10
247653,832668,623,EEE2014J,3,4,-12
247653,832668,623,EEE2014J,3,4,-11
247653,832565,617,EEE2014J,5,7,-11
255140,729671,257,CCC2014B,4,5,-10
259750,547548,316,DDD2013B,3,4,-5
259750,547303,303,DDD2013B,4,5,-5
264589,882654,880,FFF2014J,5,6,3
272617,913483,221,BBB2014J,4,5,81
272617,703894,120,BBB2013J,5,7,46
272617,913490,238,BBB2014J,5,7,81
282785,703725,129,BBB2013J,3,4,52
282785,703732,110,BBB2013J,3,4,52
282785,703721,131,BBB2013J,4,5,52
282785,703721,131,BBB2013J,5,7,-7
282785,703894,120,BBB2013J,5,7,52
288655,913473,223,BBB2014J,4,5,17
288655,913494,237,BBB2014J,5,6,-5
294999,542807,97,BBB2013B,1,2,17
294999,542864,106,BBB2013B,1,2,28
294999,542811,96,BBB2013B,5,6,11
294999,542864,106,BBB2013B,5,6,17
296100,716216,714,FFF2013J,5,7,6
296100,716216,714,FFF2013J,5,7,6
305313,547836,334,DDD2013B,0,1,13
305313,547548,316,DDD2013B,1,2,13
305313,547303,303,DDD2013B,3,4,7
305313,547303,303,DDD2013B,3,4,13
308852,703722,115,BBB2013J,2,3,-3
308852,703721,131,BBB2013J,2,3,43
308852,703721,131,BBB2013J,3,4,-3
308852,703895,150,BBB2013J,5,6,82
308852,703895,150,BBB2013J,5,7,82
311042,542811,96,BBB2013B,3,4,16
311042,542811,96,BBB2013B,5,6,16
311042,542811,96,BBB2013B,5,6,16
311042,542808,87,BBB2013B,5,7,-6
315082,673519,452,DDD2013J,5,6,4
318574,673733,389,DDD2013J,4,5,-8
318574,673537,374,DDD2013J,5,7,3
318574,673537,374,DDD2013J,5,7,3
352102,716271,738,FFF2013J,4,5,-2
361842,772705,509,DDD2014B,2,3,-7
361842,772705,509,DDD2014B,4,5,-14
361842,772705,509,DDD2014B,5,7,-18
364307,813701,546,DDD2014J,3,4,-23
364307,813956,584,DDD2014J,3,4,1
364307,813701,546,DDD2014J,4,5,-16
364307,813937,577,DDD2014J,4,5,1
369507,703737,122,BBB2013J,2,3,7
369507,703737,122,BBB2013J,2,3,7
369507,703737,122,BBB2013J,5,6,17
369507,703737,122,BBB2013J,5,7,17
372172,703721,131,BBB2013J,4,5,-6
372172,703721,131,BBB2013J,4,5,18
382877,768393,172,BBB2014B,1,2,-9
382877,768396,170,BBB2014B,1,2,-8
382877,768351,198,BBB2014B,3,4,-8
382877,768382,173,BBB2014B,4,5,-9
386985,527218,652,FFF2013B,3,4,10
386985,527114,675,FFF2013B,4,5,10
386985,526721,686,FFF2013B,5,6,-17
386985,527115,650,FFF2013B,5,6,10
387941,716318,753,FFF2013J,5,6,11
394480,768396,170,BBB2014B,4,5,2
395954,661705,926,GGG2013J,2,3,5
395954,661694,922,GGG2013J,3,4,15
407595,547542,343,DDD2013B,1,2,116
407595,547548,316,DDD2013B,2,3,17
407595,547303,303,DDD2013B,3,4,116
407595,547542,343,DDD2013B,4,5,107
407595,547303,303,DDD2013B,4,5,160
409056,673537,374,DDD2013J,3,4,2
417863,526821,697,FFF2013B,3,4,-3
417863,526820,649,FFF2013B,4,5,-3
425919,909071,293,CCC2014J,5,7,3
428068,779427,805,FFF2014B,4,5,10
428068,779089,842,FFF2014B,5,6,0
429777,768376,177,BBB2014B,2,3,46
429777,768351,198,BBB2014B,3,4,-9
429777,768376,177,BBB2014B,5,7,46
430160,543071,79,BBB2013B,3,4,-6
430160,543188,104,BBB2013B,3,4,5
430160,543068,101,BBB2013B,5,7,5
442670,716638,703,FFF2013J,4,5,-14
465719,729671,257,CCC2014B,4,5,101
465719,526721,686,FFF2013B,4,5,41
467312,882617,902,FFF2014J,1,2,36
467312,883092,905,FFF2014J,1,2,36
467312,882654,880,FFF2014J,2,3,-11
467312,883040,874,FFF2014J,2,3,-11
467312,882537,900,FFF2014J,3,4,-11
467894,729683,263,CCC2014B,2,3,18
467894,730035,270,CCC2014B,3,4,18
467894,729787,267,CCC2014B,4,5,18
469579,913473,223,BBB2014J,3,4,54
469579,913510,233,BBB2014J,4,5,150
476093,547303,303,DDD2013B,3,4,-14
476093,547548,316,DDD2013B,3,4,-7
476093,547303,303,DDD2013B,3,4,-7
476093,547303,303,DDD2013B,4,5,-16
476093,547303,303,DDD2013B,4,5,-4
477165,661585,922,GGG2013J,4,5,31
484312,716216,714,FFF2013J,5,7,50
485306,773202,478,DDD2014B,1,2,11
485306,773160,506,DDD2014B,1,2,11
485306,773001,493,DDD2014B,2,3,3
485306,772705,509,DDD2014B,4,5,11
485306,772990,499,DDD2014B,5,7,11
489048,882626,897,FFF2014J,3,4,2
489048,883040,874,FFF2014J,4,5,11
489048,882654,880,FFF2014J,5,7,11
489313,547548,316,DDD2013B,2,3,21
489313,547930,337,DDD2013B,3,4,21
489313,547303,303,DDD2013B,3,4,22
489313,547303,303,DDD2013B,4,5,25
490299,913473,223,BBB2014J,5,7,2
491885,547836,334,DDD2013B,1,2,-8
491885,547303,303,DDD2013B,3,4,-10
494911,909232,284,CCC2014J,3,4,21
494911,909093,271,CCC2014J,5,6,8
494911,909013,271,CCC2014J,5,7,8
495674,542864,106,BBB2013B,1,2,9
495674,543068,101,BBB2013B,1,2,10
495674,543038,99,BBB2013B,1,2,44
495674,542808,87,BBB2013B,2,3,3
495674,542864,106,BBB2013B,2,3,14
495786,913468,234,BBB2014J,2,3,-4
495786,547548,316,DDD2013B,2,3,2
495786,547272,356,DDD2013B,3,4,2
495786,913473,223,BBB2014J,4,5,-4
495786,547272,356,DDD2013B,4,5,5
501890,773172,497,DDD2014B,2,3,-17
501890,773196,482,DDD2014B,4,5,-17
501890,773182,469,DDD2014B,5,6,-18
502642,673740,386,DDD2013J,2,3,24
502642,674266,455,DDD2013J,4,5,8
504393,768396,170,BBB2014B,4,5,1
504689,543091,83,BBB2013B,2,3,-3
504689,543187,83,BBB2013B,2,3,-3
504689,542864,106,BBB2013B,2,3,22
504689,543071,79,BBB2013B,5,6,-3
508232,716216,714,FFF2013J,4,5,4
508232,716318,753,FFF2013J,4,5,9
508232,716238,733,FFF2013J,4,5,9
508232,716238,733,FFF2013J,5,6,21
510169,551071,594,EEE2013J,5,6,121
510169,551033,599,EEE2013J,5,6,122
510169,551063,590,EEE2013J,5,7,94
511492,798622,941,GGG2014B,2,3,-8
511492,798622,941,GGG2014B,2,3,-2
511492,798622,941,GGG2014B,4,5,222
511492,798622,941,GGG2014B,5,7,80
514699,661585,922,GGG2013J,2,3,52
514699,661585,922,GGG2013J,4,5,9
514699,661572,918,GGG2013J,5,6,9
514699,661585,922,GGG2013J,5,7,35
516318,772705,509,DDD2014B,2,3,119
516318,772705,509,DDD2014B,3,4,34
516318,773112,517,DDD2014B,4,5,20
516318,772705,509,DDD2014B,5,6,20
517223,909260,287,CCC2014J,1,2,32
517223,909092,280,CCC2014J,1,2,66
517223,909013,271,CCC2014J,2,3,27
517223,909013,271,CCC2014J,2,3,32
517223,909093,271,CCC2014J,4,5,18
517701,542864,106,BBB2013B,4,5,1
517701,542807,97,BBB2013B,4,5,11
517701,542807,97,BBB2013B,4,5,11
520749,543020,94,BBB2013B,2,3,3
520749,543068,101,BBB2013B,3,4,10
520749,542864,106,BBB2013B,3,4,10
520749,542864,106,BBB2013B,4,5,5
520749,543071,79,BBB2013B,5,6,5
521350,832567,622,EEE2014J,4,5,3
521350,832567,622,EEE2014J,4,5,3
521350,832566,627,EEE2014J,5,7,3
523427,798622,941,GGG2014B,5,6,-6
523632,673519,452,DDD2013J,3,4,2
523632,673740,386,DDD2013J,4,5,29
524731,547548,316,DDD2013B,1,2,25
524731,547303,303,DDD2013B,1,2,25
524731,547902,310,DDD2013B,2,3,25
524769,543055,105,BBB2013B,1,2,17
524769,542808,87,BBB2013B,2,3,10
524769,542864,106,BBB2013B,3,4,44
524769,542811,96,BBB2013B,5,6,10
525557,527169,685,FFF2013B,2,3,11
525557,527231,645,FFF2013B,3,4,-9
525557,526857,661,FFF2013B,5,6,-9
525557,527203,663,FFF2013B,5,7,11
525557,526721,686,FFF2013B,5,7,11
527382,542811,96,BBB2013B,5,6,16
527659,542811,96,BBB2013B,5,6,46
527659,542891,85,BBB2013B,5,7,51
528071,526721,686,FFF2013B,5,7,-14
528071,526721,686,FFF2013B,5,7,-10
528264,527134,685,FFF2013B,5,6,12
528264,526823,647,FFF2013B,5,6,12
530266,542808,87,BBB2013B,5,6,14
530266,542864,106,BBB2013B,5,7,14
531235,542811,96,BBB2013B,1,2,4
531235,542808,87,BBB2013B,2,3,4
531235,543068,101,BBB2013B,2,3,9
531235,543071,79,BBB2013B,4,5,1
532683,673740,386,DDD2013J,2,3,3
532683,673519,452,DDD2013J,2,3,23
532683,673519,452,DDD2013J,3,4,3
532683,673519,452,DDD2013J,3,4,25
533414,703721,131,BBB2013J,5,7,-8
536736,909087,272,CCC2014J,2,3,15
536736,909087,272,CCC2014J,2,3,15
536736,909013,271,CCC2014J,3,4,15
536736,909087,272,CCC2014J,3,4,15
536736,909093,271,CCC2014J,5,6,17
537676,542864,106,BBB2013B,2,3,-5
537676,542811,96,BBB2013B,3,4,11
537676,542811,96,BBB2013B,5,6,11
537676,543055,105,BBB2013B,5,6,11
539468,527156,694,FFF2013B,3,4,4
539468,526735,637,FFF2013B,4,5,3
539468,526735,637,FFF2013B,5,7,3
539468,526835,650,FFF2013B,5,7,23
541369,526721,686,FFF2013B,2,3,-13
541369,527173,683,FFF2013B,2,3,12
541369,527389,652,FFF2013B,2,3,52
541369,527231,645,FFF2013B,2,3,52
541369,526823,647,FFF2013B,4,5,-13
541774,896943,949,GGG2014J,1,2,111
541774,896943,949,GGG2014J,1,2,172
541774,897151,949,GGG2014J,2,3,60
542172,542811,96,BBB2013B,3,4,58
542172,542794,101,BBB2013B,4,5,47
542172,542795,90,BBB2013B,4,5,53
542172,542807,97,BBB2013B,5,6,53
543418,703721,131,BBB2013J,1,2,8
543418,703721,131,BBB2013J,2,3,67
543418,703721,131,BBB2013J,3,4,-3
543418,703895,150,BBB2013J,5,7,67
543418,703896,134,BBB2013J,5,7,115
544352,547303,303,DDD2013B,4,5,-4
544352,547272,356,DDD2013B,4,5,-4
544352,547556,312,DDD2013B,5,7,16
544352,547272,356,DDD2013B,5,7,16
545072,543068,101,BBB2013B,2,3,7
545072,543038,99,BBB2013B,2,3,17
545072,542864,106,BBB2013B,4,5,-8
547334,897057,948,GGG2014J,3,4,60
547334,896939,958,GGG2014J,4,5,26
547334,897151,949,GGG2014J,5,6,60
547334,896939,958,GGG2014J,5,7,60
547372,542891,85,BBB2013B,5,7,54
548344,542811,96,BBB2013B,4,5,17
548344,542811,96,BBB2013B,5,7,17
548872,547546,365,DDD2013B,4,5,53
548872,547272,356,DDD2013B,5,6,31
549575,547272,356,DDD2013B,2,3,1
549575,547548,316,DDD2013B,2,3,11
549575,547272,356,DDD2013B,3,4,1
549973,661575,923,GGG2013J,2,3,87
549973,661607,913,GGG2013J,2,3,128
549973,661575,923,GGG2013J,2,3,171
549973,661575,923,GGG2013J,4,5,128
549973,661607,913,GGG2013J,5,6,128
551340,772729,485,DDD2014B,5,6,0
551340,772990,499,DDD2014B,5,7,9
552030,547303,303,DDD2013B,1,2,18
552030,547303,303,DDD2013B,2,3,-12
552030,547272,356,DDD2013B,3,4,5
552030,547272,356,DDD2013B,3,4,5
552030,547548,316,DDD2013B,5,6,18
553253,547303,303,DDD2013B,1,2,33
553253,547930,337,DDD2013B,2,3,21
553253,547303,303,DDD2013B,5,6,21
553627,547303,303,DDD2013B,5,7,22
554585,772705,509,DDD2014B,3,4,-16
554585,772705,509,DDD2014B,3,4,-8
554585,772705,509,DDD2014B,5,6,-15
554585,772987,501,DDD2014B,5,6,2
554587,547272,356,DDD2013B,2,3,-4
554587,547272,356,DDD2013B,2,3,-4
554587,547272,356,DDD2013B,2,3,-3
554587,547303,303,DDD2013B,5,7,-4
554587,547548,316,DDD2013B,5,7,4
556062,703722,115,BBB2013J,2,3,-1
556062,703721,131,BBB2013J,2,3,65
556062,703722,115,BBB2013J,3,4,3
556170,773313,511,DDD2014B,2,3,2
556170,772990,499,DDD2014B,2,3,8
556170,772990,499,DDD2014B,4,5,8
556738,703943,144,BBB2013J,3,4,1
556738,703902,147,BBB2013J,3,4,8
556738,703721,131,BBB2013J,4,5,1
556738,703732,110,BBB2013J,4,5,8
557083,813937,577,DDD2014J,4,5,10
557083,813701,546,DDD2014J,4,5,11
557083,813710,561,DDD2014J,5,6,5
557083,813937,577,DDD2014J,5,7,9
557089,526735,637,FFF2013B,5,6,-1
558052,673519,452,DDD2013J,2,3,12
558052,673519,452,DDD2013J,3,4,-17
558052,673519,452,DDD2013J,3,4,10
558317,547918,346,DDD2013B,1,2,-1
558317,547303,303,DDD2013B,3,4,7
558317,547303,303,DDD2013B,4,5,-13
559808,543188,104,BBB2013B,2,3,4
559808,542864,106,BBB2013B,4,5,-9
559808,543071,79,BBB2013B,5,6,4
561718,542811,96,BBB2013B,5,7,17
561718,542864,106,BBB2013B,5,7,18
563019,716238,733,FFF2013J,2,3,-17
563019,716640,726,FFF2013J,3,4,-17
563019,716238,733,FFF2013J,5,7,16
563157,542864,106,BBB2013B,2,3,55
563157,542808,87,BBB2013B,3,4,7
563157,542807,97,BBB2013B,3,4,7
563157,542811,96,BBB2013B,3,4,20
563157,542811,96,BBB2013B,5,6,20
566712,813701,546,DDD2014J,2,3,-1
566712,813937,577,DDD2014J,2,3,0
566712,814191,530,DDD2014J,3,4,-19
566712,813701,546,DDD2014J,5,6,-6
570177,704224,122,BBB2013J,1,2,11
570177,703939,115,BBB2013J,1,2,11
570177,703944,128,BBB2013J,2,3,2
570177,703721,131,BBB2013J,2,3,8
571079,716238,733,FFF2013J,3,4,-15
571079,716238,733,FFF2013J,5,6,-18
571079,716238,733,FFF2013J,5,6,-5
571079,716261,745,FFF2013J,5,7,-5
571395,913689,231,BBB2014J,1,2,121
571395,913473,223,BBB2014J,1,2,128
571395,913493,248,BBB2014J,3,4,121
571395,913491,228,BBB2014J,4,5,115
571395,913473,223,BBB2014J,4,5,158
571927,716649,719,FFF2013J,2,3,5
571927,716318,753,FFF2013J,2,3,26
571927,716216,714,FFF2013J,2,3,26
571927,716271,738,FFF2013J,4,5,5
571927,716239,707,FFF2013J,4,5,5
572937,703943,144,BBB2013J,3,4,-5
574891,909013,271,CCC2014J,2,3,54
574891,909013,271,CCC2014J,3,4,38
574891,909013,271,CCC2014J,4,5,51
575365,673519,452,DDD2013J,3,4,-5
575365,673519,452,DDD2013J,3,4,2
575365,673519,452,DDD2013J,4,5,24
575365,673519,452,DDD2013J,5,7,25
577304,768336,207,BBB2014B,4,5,19
577304,768338,164,BBB2014B,4,5,19
577304,768351,198,BBB2014B,5,6,-8
577304,768396,170,BBB2014B,5,6,-8
577304,768376,177,BBB2014B,5,7,47
577887,551063,590,EEE2013J,5,6,25
577887,551053,596,EEE2013J,5,7,16
579486,703721,131,BBB2013J,5,6,102
579486,913473,223,BBB2014J,5,6,51
581328,729671,257,CCC2014B,3,4,18
581328,729671,257,CCC2014B,3,4,37
581584,673519,452,DDD2013J,3,4,-5
581584,673737,450,DDD2013J,3,4,40
582039,661585,922,GGG2013J,5,6,41
582039,661584,928,GGG2013J,5,7,11
582154,716238,733,FFF2013J,1,2,74
582154,716238,733,FFF2013J,1,2,204
582154,716216,714,FFF2013J,5,6,4
582309,661575,923,GGG2013J,2,3,11
582309,661575,923,GGG2013J,2,3,89
582309,661584,928,GGG2013J,3,4,57
583179,913494,237,BBB2014J,3,4,-9
583179,913473,223,BBB2014J,4,5,-5
583179,913494,237,BBB2014J,5,6,-5
584749,716216,714,FFF2013J,3,4,19
584749,716216,714,FFF2013J,5,6,12
584749,716216,714,FFF2013J,5,7,4
584843,779089,842,FFF2014B,3,4,-17
584843,779374,820,FFF2014B,4,5,-17
584843,779089,842,FFF2014B,5,6,0
585409,716216,714,FFF2013J,1,2,8
585409,716318,753,FFF2013J,2,3,-18
585409,716261,745,FFF2013J,2,3,8
585409,716318,753,FFF2013J,5,6,8
585409,716238,733,FFF2013J,5,6,8
585484,716216,714,FFF2013J,3,4,9
585484,716318,753,FFF2013J,4,5,9
585484,716216,714,FFF2013J,5,6,13
586011,716216,714,FFF2013J,5,7,1
586563,661808,912,GGG2013J,4,5,4
586563,661572,918,GGG2013J,4,5,4
587478,661808,912,GGG2013J,2,3,4
587478,661575,923,GGG2013J,2,3,6
587478,661575,923,GGG2013J,2,3,47
587478,661585,922,GGG2013J,3,4,2
587585,729671,257,CCC2014B,2,3,36
587772,813701,546,DDD2014J,3,4,18
587772,813931,559,DDD2014J,3,4,38
588940,798622,941,GGG2014B,2,3,37
588940,798635,939,GGG2014B,3,4,82
588940,798622,941,GGG2014B,4,5,95
588940,798635,939,GGG2014B,5,7,73
589212,674075,437,DDD2013J,1,2,-11
589212,673519,452,DDD2013J,1,2,2
589212,673981,436,DDD2013J,2,3,-11
589212,673519,452,DDD2013J,5,7,-11
590028,661570,924,GGG2013J,3,4,60
590028,661575,923,GGG2013J,3,4,65
590923,703737,122,BBB2013J,5,7,40
590923,703894,120,BBB2013J,5,7,54
590951,673740,386,DDD2013J,3,4,3
590951,673727,455,DDD2013J,3,4,50
590951,673737,450,DDD2013J,4,5,42
590951,673519,452,DDD2013J,5,7,42
591845,673537,374,DDD2013J,1,2,-1
591845,673519,452,DDD2013J,1,2,13
591845,673519,452,DDD2013J,2,3,-16
591845,673519,452,DDD2013J,4,5,2
592581,551053,596,EEE2013J,5,6,2
592581,551011,592,EEE2013J,5,6,6
592581,551065,594,EEE2013J,5,7,2
592880,661712,919,GGG2013J,5,6,54
592880,661808,912,GGG2013J,5,6,54
592951,909093,271,CCC2014J,3,4,18
592951,832565,617,EEE2014J,4,5,18
592951,909013,271,CCC2014J,5,6,18
593189,704224,122,BBB2013J,2,3,-3
593189,704229,151,BBB2013J,2,3,-1
593189,703721,131,BBB2013J,3,4,-3
593431,661575,923,GGG2013J,3,4,170
593431,661575,923,GGG2013J,4,5,-11
593431,661575,923,GGG2013J,4,5,132
593431,661572,918,GGG2013J,4,5,194
593845,551079,597,EEE2013J,3,4,8
593845,551010,597,EEE2013J,3,4,8
593845,551066,590,EEE2013J,4,5,12
593930,703722,115,BBB2013J,4,5,14
594908,798672,943,GGG2014B,1,2,148
594908,798670,938,GGG2014B,2,3,48
594908,798622,941,GGG2014B,2,3,147
594908,798622,941,GGG2014B,3,4,28
594908,798670,938,GGG2014B,4,5,28
595711,703737,122,BBB2013J,2,3,25
595711,703737,122,BBB2013J,3,4,7
595711,703737,122,BBB2013J,4,5,7
595711,703721,131,BBB2013J,4,5,7
596496,913474,243,BBB2014J,2,3,5
596496,913474,243,BBB2014J,4,5,5
596496,913473,223,BBB2014J,4,5,5
596496,913473,223,BBB2014J,5,7,-4
596641,703721,131,BBB2013J,4,5,-4
596677,703894,120,BBB2013J,5,7,41
596677,703894,120,BBB2013J,5,7,41
597451,703939,115,BBB2013J,4,5,16
597451,703737,122,BBB2013J,5,6,10
597451,703737,122,BBB2013J,5,7,10
597610,768351,198,BBB2014B,5,6,-3
597610,768348,179,BBB2014B,5,7,3
598924,551050,597,EEE2013J,3,4,26
598924,551010,597,EEE2013J,5,6,16
598924,551064,599,EEE2013J,5,6,26
598924,551079,597,EEE2013J,5,7,19
599059,832565,617,EEE2014J,2,3,-4
599432,703944,128,BBB2013J,3,4,-3
599432,703721,131,BBB2013J,4,5,42
599432,703721,131,BBB2013J,5,7,19
599448,661575,923,GGG2013J,5,6,30
599503,661575,923,GGG2013J,1,2,12
599503,661575,923,GGG2013J,1,2,96
599503,661607,913,GGG2013J,1,2,96
599503,661694,922,GGG2013J,1,2,152
599503,661575,923,GGG2013J,4,5,152
599655,673519,452,DDD2013J,2,3,15
599655,673519,452,DDD2013J,3,4,-13
599655,673537,374,DDD2013J,3,4,15
599655,673537,374,DDD2013J,5,7,15
599994,716377,707,FFF2013J,3,4,92
599994,716251,702,FFF2013J,4,5,92
599994,716744,725,FFF2013J,4,5,92
599994,716678,748,FFF2013J,5,7,92
599994,716643,724,FFF2013J,5,7,92
600770,703722,115,BBB2013J,3,4,-3
600770,703721,131,BBB2013J,4,5,-3
600770,703737,122,BBB2013J,4,5,6
600770,703721,131,BBB2013J,5,7,-2
600770,703722,115,BBB2013J,5,7,-2
603791,790737,612,EEE2014B,3,4,-3
603791,729671,257,CCC2014B,5,6,-3
603791,790738,608,EEE2014B,5,6,-3
603791,790732,604,EEE2014B,5,7,-3
603791,790738,608,EEE2014B,5,7,4
604951,703902,147,BBB2013J,5,7,33
605292,703737,122,BBB2013J,2,3,5
605292,703737,122,BBB2013J,5,6,5
605541,832656,624,EEE2014J,4,5,32
605541,832565,617,EEE2014J,4,5,67
605541,832565,617,EEE2014J,5,7,31
605541,832658,614,EEE2014J,5,7,33
606063,703721,131,BBB2013J,5,6,22
606063,703943,144,BBB2013J,5,7,3
606477,703721,131,BBB2013J,4,5,15
606477,703737,122,BBB2013J,5,6,18
606574,661584,928,GGG2013J,4,5,57
606574,661808,912,GGG2013J,5,6,57
606602,798622,941,GGG2014B,3,4,2
606602,798832,938,GGG2014B,5,6,109
606827,703737,122,BBB2013J,1,2,20
606827,703894,120,BBB2013J,1,2,35
606827,703894,120,BBB2013J,1,2,35
606827,703894,120,BBB2013J,5,7,35
606914,913473,223,BBB2014J,2,3,109
606914,913690,221,BBB2014J,2,3,109
606914,913690,221,BBB2014J,2,3,152
606914,913473,223,BBB2014J,3,4,152
606935,779075,823,FFF2014B,1,2,8
606935,779374,820,FFF2014B,2,3,1
606935,779089,842,FFF2014B,3,4,0
606935,779374,820,FFF2014B,4,5,-16
607705,773182,469,DDD2014B,1,2,-17
607705,772705,509,DDD2014B,1,2,-14
607705,772705,509,DDD2014B,1,2,-11
607705,772990,499,DDD2014B,3,4,-17
607705,772990,499,DDD2014B,3,4,-14
608170,673733,389,DDD2013J,3,4,1
608170,673519,452,DDD2013J,4,5,1
608306,661607,913,GGG2013J,1,2,122
608306,661607,913,GGG2013J,1,2,122
608306,661607,913,GGG2013J,2,3,122
608306,661575,923,GGG2013J,4,5,85
608306,661575,923,GGG2013J,5,6,122
608564,703896,134,BBB2013J,2,3,131
608564,703725,129,BBB2013J,3,4,56
608564,703896,134,BBB2013J,3,4,131
608564,703894,120,BBB2013J,4,5,54
609655,813931,559,DDD2014J,1,2,24
609655,813701,546,DDD2014J,2,3,4
609655,813701,546,DDD2014J,4,5,20
609655,813701,546,DDD2014J,5,6,19
609655,813711,540,DDD2014J,5,6,19
610393,674176,382,DDD2013J,0,1,10
610393,674055,394,DDD2013J,0,1,10
610393,673519,452,DDD2013J,2,3,0
610774,716252,752,FFF2013J,2,3,44
610774,716431,749,FFF2013J,5,7,7
610913,673537,374,DDD2013J,4,5,1
610913,673746,384,DDD2013J,4,5,1
610913,673519,452,DDD2013J,5,6,-17
610913,673519,452,DDD2013J,5,7,1
611356,813931,559,DDD2014J,2,3,26
611356,813701,546,DDD2014J,3,4,25
611356,813936,537,DDD2014J,4,5,25
611356,813701,546,DDD2014J,5,6,26
613116,790740,612,EEE2014B,2,3,1
613116,790740,612,EEE2014B,2,3,1
613116,790738,608,EEE2014B,4,5,-1
613116,790834,612,EEE2014B,4,5,-1
613116,790732,604,EEE2014B,5,7,1
613387,790835,608,EEE2014B,3,4,10
613387,790732,604,EEE2014B,4,5,18
613387,790940,611,EEE2014B,4,5,18
613387,729671,257,CCC2014B,5,6,34
613387,790834,612,EEE2014B,5,7,10
613993,798622,941,GGG2014B,5,6,93
613993,798635,939,GGG2014B,5,6,93
613993,798635,939,GGG2014B,5,6,93
614994,779089,842,FFF2014B,2,3,-4
614994,779089,842,FFF2014B,2,3,-2
614994,779089,842,FFF2014B,2,3,-1
614994,779089,842,FFF2014B,2,3,10
614994,779374,820,FFF2014B,4,5,-4
615319,768382,173,BBB2014B,2,3,10
615319,768351,198,BBB2014B,5,6,53
615319,768376,177,BBB2014B,5,7,44
615319,768336,207,BBB2014B,5,7,53
615319,768377,156,BBB2014B,5,7,81
617714,768376,177,BBB2014B,2,3,41
617714,768378,197,BBB2014B,5,7,115
618631,768351,198,BBB2014B,3,4,9
618631,768351,198,BBB2014B,5,7,2
619015,772705,509,DDD2014B,4,5,-17
619472,909013,271,CCC2014J,3,4,17
620925,773202,478,DDD2014B,2,3,24
620925,773160,506,DDD2014B,2,3,24
620925,772990,499,DDD2014B,3,4,23
620925,772705,509,DDD2014B,5,7,-8
621001,813956,584,DDD2014J,3,4,3
621001,813710,561,DDD2014J,5,6,3
621001,813710,561,DDD2014J,5,6,3
621401,790835,608,EEE2014B,4,5,-3
621401,790738,608,EEE2014B,5,6,3
621401,790835,608,EEE2014B,5,6,3
621693,798688,947,GGG2014B,4,5,12
621899,913669,236,BBB2014J,1,2,22
621899,913473,223,BBB2014J,2,3,12
621899,913657,239,BBB2014J,2,3,22
621899,913473,223,BBB2014J,3,4,19
621899,913474,243,BBB2014J,5,6,22
622207,772705,509,DDD2014B,4,5,-18
622281,772995,517,DDD2014B,2,3,48
622281,772990,499,DDD2014B,2,3,48
622281,772705,509,DDD2014B,3,4,12
622281,772995,517,DDD2014B,5,6,48
623001,768341,162,BBB2014B,2,3,66
623001,768351,198,BBB2014B,5,6,66
623407,909013,271,CCC2014J,4,5,14
623407,909013,271,CCC2014J,5,6,9
623834,772729,485,DDD2014B,1,2,18
623834,773172,497,DDD2014B,1,2,19
623834,772990,499,DDD2014B,2,3,17
623834,772990,499,DDD2014B,3,4,20
623834,772990,499,DDD2014B,3,4,25
624384,790862,610,EEE2014B,5,6,41
624455,798620,947,GGG2014B,4,5,-6
624455,798620,947,GGG2014B,5,6,-6
624667,798669,944,GGG2014B,3,4,49
624667,798670,938,GGG2014B,4,5,20
624667,798832,938,GGG2014B,5,6,52
624765,729791,259,CCC2014B,5,6,31
625613,773196,482,DDD2014B,2,3,0
625613,773182,469,DDD2014B,3,4,0
625613,772705,509,DDD2014B,5,6,0
625667,779620,799,FFF2014B,3,4,2
625667,779075,823,FFF2014B,4,5,2
625667,779374,820,FFF2014B,4,5,2
625667,779427,805,FFF2014B,5,7,16
625667,779075,823,FFF2014B,5,7,17
625709,913473,223,BBB2014J,2,3,53
625709,913519,230,BBB2014J,2,3,54
625709,913673,235,BBB2014J,3,4,13
625709,913473,223,BBB2014J,3,4,54
625768,768376,177,BBB2014B,5,7,38
625768,768377,156,BBB2014B,5,7,75
625768,768351,198,BBB2014B,5,7,158
626872,768396,170,BBB2014B,4,5,-9
626872,768397,211,BBB2014B,5,7,2
626872,768351,198,BBB2014B,5,7,2
628363,882537,900,FFF2014J,1,2,6
628363,883037,854,FFF2014J,2,3,2
628363,883040,874,FFF2014J,2,3,4
628363,882537,900,FFF2014J,2,3,10
628363,882537,900,FFF2014J,5,7,4
628715,798622,941,GGG2014B,1,2,86
628715,798749,936,GGG2014B,2,3,32
628715,798622,941,GGG2014B,3,4,32
628715,798622,941,GGG2014B,4,5,30
628715,798622,941,GGG2014B,5,6,21
628733,813953,526,DDD2014J,2,3,20
628733,813701,546,DDD2014J,3,4,-22
628733,813701,546,DDD2014J,5,6,20
628759,798622,941,GGG2014B,4,5,16
628759,798620,947,GGG2014B,5,6,16
628759,798635,939,GGG2014B,5,6,103
628759,798635,939,GGG2014B,5,6,103
628759,798622,941,GGG2014B,5,7,67
629623,790732,604,EEE2014B,4,5,18
629623,790847,611,EEE2014B,4,5,33
629623,729822,253,CCC2014B,5,6,32
629623,730023,265,CCC2014B,5,6,32
629735,779374,820,FFF2014B,3,4,3
629735,779089,842,FFF2014B,5,7,0
629887,729671,257,CCC2014B,3,4,10
629990,798670,938,GGG2014B,5,6,4
629990,798622,941,GGG2014B,5,6,4
631051,790740,612,EEE2014B,3,4,-4
631756,798622,941,GGG2014B,1,2,76
631756,798675,943,GGG2014B,1,2,88
631756,798622,941,GGG2014B,2,3,62
631756,798622,941,GGG2014B,3,4,16
631756,798622,941,GGG2014B,3,4,56
631978,798670,938,GGG2014B,5,6,22
631978,798670,938,GGG2014B,5,6,38
631978,798622,941,GGG2014B,5,7,14
632504,773122,487,DDD2014B,2,3,8
632504,772705,509,DDD2014B,2,3,24
632504,772705,509,DDD2014B,2,3,25
632504,772705,509,DDD2014B,5,6,-10
632504,773182,469,DDD2014B,5,6,-10
632613,798675,943,GGG2014B,2,3,95
632613,798622,941,GGG2014B,3,4,15
632613,798622,941,GGG2014B,3,4,32
632613,798670,938,GGG2014B,5,7,37
632847,768336,207,BBB2014B,3,4,18
632847,768336,207,BBB2014B,4,5,15
632847,768336,207,BBB2014B,5,6,18
633448,798832,938,GGG2014B,2,3,36
633448,798670,938,GGG2014B,3,4,22
634347,798622,941,GGG2014B,4,5,71
634347,798675,943,GGG2014B,5,7,73
634562,798622,941,GGG2014B,3,4,3
634562,798832,938,GGG2014B,5,7,23
634638,779379,839,FFF2014B,3,4,29
634638,779332,823,FFF2014B,5,6,29
634655,832565,617,EEE2014J,3,4,-14
634655,832565,617,EEE2014J,5,7,-16
634785,897150,954,GGG2014J,2,3,19
634785,897053,953,GGG2014J,2,3,28
634785,897051,949,GGG2014J,3,4,7
634785,897051,949,GGG2014J,3,4,19
634785,896943,949,GGG2014J,5,7,19
635885,798622,941,GGG2014B,2,3,166
635986,813710,561,DDD2014J,5,6,-1
636628,909232,284,CCC2014J,4,5,2
636628,909093,271,CCC2014J,4,5,17
636653,883076,893,FFF2014J,2,3,-15
636653,882654,880,FFF2014J,4,5,-18
636653,882617,902,FFF2014J,5,6,-18
640654,896943,949,GGG2014J,4,5,18
641073,896978,959,GGG2014J,2,3,124
641073,896981,950,GGG2014J,2,3,170
641265,882626,897,FFF2014J,2,3,18
641265,882537,900,FFF2014J,3,4,1
641265,882545,877,FFF2014J,4,5,1
641265,882626,897,FFF2014J,5,6,1
641557,813701,546,DDD2014J,2,3,-22
641557,813701,546,DDD2014J,2,3,25
641557,813701,546,DDD2014J,3,4,-25
641557,814210,582,DDD2014J,3,4,-1
643200,832566,627,EEE2014J,5,6,2
643200,832668,623,EEE2014J,5,7,2
643200,832668,623,EEE2014J,5,7,8
643644,832565,617,EEE2014J,5,6,-2
643712,897151,949,GGG2014J,3,4,60
643712,896980,954,GGG2014J,4,5,10
643712,896943,949,GGG2014J,4,5,60
644163,832565,617,EEE2014J,5,6,1
644163,832565,617,EEE2014J,5,6,12
644191,897071,950,GGG2014J,1,2,12
644191,897121,951,GGG2014J,2,3,2
644191,896943,949,GGG2014J,3,4,11
644191,896943,949,GGG2014J,3,4,12
644191,896943,949,GGG2014J,5,6,2
647774,913473,223,BBB2014J,0,1,32
647774,913473,223,BBB2014J,1,2,-9
647774,913474,243,BBB2014J,1,2,-9
647774,913474,243,BBB2014J,2,3,-9
647774,913473,223,BBB2014J,2,3,17
648985,913473,223,BBB2014J,2,3,2
648985,913481,241,BBB2014J,2,3,21
648985,913494,237,BBB2014J,3,4,2
648985,913493,248,BBB2014J,3,4,21
649783,832566,627,EEE2014J,5,7,9
649963,813710,561,DDD2014J,5,6,44
650133,909093,271,CCC2014J,3,4,18
650133,909013,271,CCC2014J,3,4,18
650133,909093,271,CCC2014J,5,7,18
650243,813710,561,DDD2014J,5,6,-4
650243,813701,546,DDD2014J,5,6,-4
650243,813710,561,DDD2014J,5,7,-4
650656,896980,954,GGG2014J,3,4,31
650656,897150,954,GGG2014J,3,4,31
650656,896943,949,GGG2014J,3,4,32
650656,896943,949,GGG2014J,4,5,31
650838,909087,272,CCC2014J,2,3,-12
650838,909013,271,CCC2014J,2,3,-12
650838,909071,293,CCC2014J,4,5,-18
650838,909060,287,CCC2014J,5,7,-18
651210,896943,949,GGG2014J,2,3,54
651210,896943,949,GGG2014J,4,5,1
652667,832668,623,EEE2014J,4,5,17
652667,832566,627,EEE2014J,5,6,17
653034,913473,223,BBB2014J,5,6,10
653034,913473,223,BBB2014J,5,6,32
653034,913474,243,BBB2014J,5,6,33
653034,913474,243,BBB2014J,5,6,33
654202,832567,622,EEE2014J,2,3,-16
654202,909347,283,CCC2014J,4,5,-11
654422,913474,243,BBB2014J,3,4,32
654620,882537,900,FFF2014J,5,6,2
654876,832565,617,EEE2014J,3,4,32
654876,832565,617,EEE2014J,4,5,33
654876,832658,614,EEE2014J,5,6,17
654876,832659,624,EEE2014J,5,6,18
654876,832565,617,EEE2014J,5,7,18
656014,896943,949,GGG2014J,1,2,-5
656014,896943,949,GGG2014J,1,2,11
656014,896981,950,GGG2014J,1,2,179
656014,896943,949,GGG2014J,3,4,179
656014,896967,951,GGG2014J,4,5,171
656026,909013,271,CCC2014J,5,7,4
656107,882617,902,FFF2014J,3,4,19
674340,897151,949,GGG2014J,2,3,45
674340,896967,951,GGG2014J,2,3,45
674340,896943,949,GGG2014J,2,3,61
674340,896943,949,GGG2014J,3,4,45
675441,832565,617,EEE2014J,3,4,-18
675441,909013,271,CCC2014J,4,5,27
675441,832668,623,EEE2014J,4,5,-18
675441,832656,624,EEE2014J,4,5,27
675441,909071,293,CCC2014J,5,7,27
676258,913474,243,BBB2014J,3,4,11
676258,913473,223,BBB2014J,5,6,21
677643,882663,875,FFF2014J,4,5,0
677643,882674,889,FFF2014J,5,6,0
677643,882545,877,FFF2014J,5,6,0
677643,882537,900,FFF2014J,5,7,0
679275,896967,951,GGG2014J,3,4,33
679275,896939,958,GGG2014J,4,5,20
680340,897058,956,GGG2014J,1,2,65
680340,897071,950,GGG2014J,5,6,58
680340,896943,949,GGG2014J,5,6,58
680340,896967,951,GGG2014J,5,7,58
681852,832565,617,EEE2014J,4,5,3
681966,909232,284,CCC2014J,2,3,39
681966,909232,284,CCC2014J,3,4,31
681966,909013,271,CCC2014J,4,5,17
682098,882573,884,FFF2014J,3,4,5
682098,882626,897,FFF2014J,5,6,4
682307,896980,954,GGG2014J,2,3,26
682307,896939,958,GGG2014J,4,5,24
682307,896939,958,GGG2014J,4,5,24
682480,913694,239,BBB2014J,0,1,237
682480,913473,223,BBB2014J,1,2,45
682480,913694,239,BBB2014J,1,2,236
682480,951621,226,BBB2014J,2,3,236
682554,832668,623,EEE2014J,5,6,12
682554,832566,627,EEE2014J,5,7,12
682575,832565,617,EEE2014J,5,6,10
682891,897050,953,GGG2014J,2,3,0
682891,896943,949,GGG2014J,2,3,19
682891,896943,949,GGG2014J,3,4,-1
682891,897151,949,GGG2014J,3,4,-1
682891,896943,949,GGG2014J,4,5,-2
683054,913696,219,BBB2014J,1,2,-5
683054,913690,221,BBB2014J,1,2,4
683054,913673,235,BBB2014J,1,2,4
683054,913473,223,BBB2014J,1,2,4
683054,913474,243,BBB2014J,2,3,-6
684736,913511,223,BBB2014J,5,7,25
686309,896943,949,GGG2014J,3,4,8
686309,896943,949,GGG2014J,3,4,10
686309,896943,949,GGG2014J,3,4,38
686633,913474,243,BBB2014J,2,3,4
686633,913474,243,BBB2014J,3,4,2
686633,913474,243,BBB2014J,4,5,9
687534,896980,954,GGG2014J,2,3,8
687534,896980,954,GGG2014J,2,3,15
687534,896943,949,GGG2014J,3,4,4
687534,896938,949,GGG2014J,4,5,3
687534,896938,949,GGG2014J,5,7,3
687586,896943,949,GGG2014J,2,3,12
690174,883153,875,FFF2014J,3,4,6
690174,882545,877,FFF2014J,5,6,6
690932,813701,546,DDD2014J,1,2,-6
690932,813710,561,DDD2014J,1,2,-6
690932,813711,540,DDD2014J,4,5,18
690932,813936,537,DDD2014J,5,6,18
691177,882537,900,FFF2014J,1,2,18
691177,909093,271,CCC2014J,2,3,18
691177,909013,271,CCC2014J,2,3,30
691177,909013,271,CCC2014J,3,4,18
691177,909093,271,CCC2014J,3,4,18
692629,913740,247,BBB2014J,2,3,14
692629,913474,243,BBB2014J,3,4,9
692629,913473,223,BBB2014J,4,5,14
692629,913696,219,BBB2014J,4,5,14
693629,883024,858,FFF2014J,1,2,-15
693629,882545,877,FFF2014J,3,4,8
693629,882654,880,FFF2014J,4,5,-15
694554,913473,223,BBB2014J,3,4,4
694554,926333,225,BBB2014J,3,4,27
694554,913473,223,BBB2014J,5,6,-5
694554,913494,237,BBB2014J,5,6,19
694554,913473,223,BBB2014J,5,6,27
695256,913528,228,BBB2014J,2,3,37
695256,913669,236,BBB2014J,2,3,37
695256,913534,246,BBB2014J,3,4,37
695256,913473,223,BBB2014J,4,5,159
695611,813936,537,DDD2014J,2,3,20
695611,813937,577,DDD2014J,2,3,20
695611,813701,546,DDD2014J,3,4,12
695799,813701,546,DDD2014J,5,6,11
695799,813937,577,DDD2014J,5,7,0
695915,909232,284,CCC2014J,2,3,32
695915,909013,271,CCC2014J,5,6,32
697119,913473,223,BBB2014J,5,6,-7
697428,913690,221,BBB2014J,2,3,150
697428,913473,223,BBB2014J,5,6,150
1837015,551063,590,EEE2013J,5,7,41
1873360,882537,900,FFF2014J,5,6,-9
1877732,673733,389,DDD2013J,5,6,0
1877732,673519,452,DDD2013J,5,6,0
1990650,703737,122,BBB2013J,4,5,5
1990650,703721,131,BBB2013J,5,6,5
2076177,542864,106,BBB2013B,4,5,7
2147889,909013,271,CCC2014J,5,6,17
2147889,909013,271,CCC2014J,5,7,16
2210666,703894,120,BBB2013J,5,7,32
2244214,909013,271,CCC2014J,3,4,12
2244214,909020,295,CCC2014J,3,4,12
2244214,909020,295,CCC2014J,4,5,12
2262671,703722,115,BBB2013J,2,3,4
2262671,703732,110,BBB2013J,2,3,4
2262671,703722,115,BBB2013J,4,5,4
2262671,703737,122,BBB2013J,5,6,4
2262671,703894,120,BBB2013J,5,7,54
2301111,542864,106,BBB2013B,2,3,44
2342238,896943,949,GGG2014J,2,3,57
2342238,896943,949,GGG2014J,2,3,67
2342238,896982,959,GGG2014J,3,4,-9
2398169,813701,546,DDD2014J,3,4,4
2398169,813701,546,DDD2014J,3,4,18
2399380,913477,242,BBB2014J,2,3,-5
2399380,913473,223,BBB2014J,4,5,-5
2415962,543020,94,BBB2013B,3,4,14
2415962,543071,79,BBB2013B,4,5,-2
2415962,542795,90,BBB2013B,4,5,-2
2415962,543055,105,BBB2013B,4,5,14
2454351,913494,237,BBB2014J,4,5,2
2459051,703721,131,BBB2013J,2,3,-2
2459051,703721,131,BBB2013J,2,3,54
2459051,704224,122,BBB2013J,4,5,-3
2459051,704224,122,BBB2013J,5,6,-2
2459279,913494,237,BBB2014J,3,4,-4
2459279,913473,223,BBB2014J,3,4,2
2459279,913473,223,BBB2014J,3,4,28
2477545,798622,941,GGG2014B,3,4,13
2477545,798670,938,GGG2014B,5,6,17
2477545,798622,941,GGG2014B,5,7,-3
2477545,798622,941,GGG2014B,5,7,17
2516497,772705,509,DDD2014B,4,5,41
2539092,673740,386,DDD2013J,3,4,-16
2539092,673519,452,DDD2013J,4,5,-16
2539092,673981,436,DDD2013J,4,5,8
2539092,673519,452,DDD2013J,5,6,8
2540746,542864,106,BBB2013B,5,6,8
2586748,526737,684,FFF2013B,3,4,-7
2586748,882537,900,FFF2014J,3,4,21
2586748,882617,902,FFF2014J,3,4,21
2586748,882545,877,FFF2014J,5,7,21
2588296,772705,509,DDD2014B,4,5,2
2588296,772729,485,DDD2014B,4,5,3
2588296,772705,509,DDD2014B,5,7,3
2588296,772729,485,DDD2014B,5,7,3
2598861,673519,452,DDD2013J,5,6,-4
2598861,673537,374,DDD2013J,5,6,3
2604698,547548,316,DDD2013B,3,4,24
2604698,547548,316,DDD2013B,4,5,21
2604698,547303,303,DDD2013B,5,7,10
2604698,547303,303,DDD2013B,5,7,13
2609574,768351,198,BBB2014B,1,2,59
2609574,768351,198,BBB2014B,2,3,16
2609574,768608,184,BBB2014B,2,3,18
2609574,768376,177,BBB2014B,5,7,37
2609574,768376,177,BBB2014B,5,7,37
2609768,913494,237,BBB2014J,2,3,-9
2609768,913473,223,BBB2014J,3,4,-9
2609768,913473,223,BBB2014J,4,5,-4
2637239,716318,753,FFF2013J,4,5,-17
2637239,716238,733,FFF2013J,4,5,-16
2664301,542811,96,BBB2013B,2,3,17
2664301,542864,106,BBB2013B,5,6,17
2664301,542811,96,BBB2013B,5,7,19
2664301,542811,96,BBB2013B,5,7,19
2694680,716238,733,FFF2013J,5,7,-10