topic_id,course_id,title,objectives
1,AAA2013J,Topic 1 in Course AAA2013J,Topic 1 in Course AAA2013J objectives
2,AAA2013J,Topic 2 in Course AAA2013J,Topic 2 in Course AAA2013J objectives
3,AAA2013J,Topic 3 in Course AAA2013J,Topic 3 in Course AAA2013J objectives
4,AAA2013J,Topic 4 in Course AAA2013J,Topic 4 in Course AAA2013J objectives
5,AAA2013J,Topic 5 in Course AAA2013J,Topic 5 in Course AAA2013J objectives
6,AAA2013J,Topic 6 in Course AAA2013J,Topic 6 in Course AAA2013J objectives
7,AAA2013J,Topic 7 in Course AAA2013J,Topic 7 in Course AAA2013J objectives
8,AAA2013J,Topic 8 in Course AAA2013J,Topic 8 in Course AAA2013J objectives
9,AAA2013J,Topic 9 in Course AAA2013J,Topic 9 in Course AAA2013J objectives
10,AAA2013J,Topic 10 in Course AAA2013J,Topic 10 in Course AAA2013J objectives
11,AAA2013J,Topic 11 in Course AAA2013J,Topic 11 in Course AAA2013J objectives
12,AAA2013J,Topic 12 in Course AAA2013J,Topic 12 in Course AAA2013J objectives
13,AAA2013J,Topic 13 in Course AAA2013J,Topic 13 in Course AAA2013J objectives
14,AAA2013J,Topic 14 in Course AAA2013J,Topic 14 in Course AAA2013J objectives
15,AAA2013J,Topic 15 in Course AAA2013J,Topic 15 in Course AAA2013J objectives
16,AAA2013J,Topic 16 in Course AAA2013J,Topic 16 in Course AAA2013J objectives
17,AAA2013J,Topic 17 in Course AAA2013J,Topic 17 in Course AAA2013J objectives
18,AAA2013J,Topic 18 in Course AAA2013J,Topic 18 in Course AAA2013J objectives
19,AAA2013J,Topic 19 in Course AAA2013J,Topic 19 in Course AAA2013J objectives
20,AAA2013J,Topic 20 in Course AAA2013J,Topic 20 in Course AAA2013J objectives
21,AAA2013J,Topic 21 in Course AAA2013J,Topic 21 in Course AAA2013J objectives
22,AAA2013J,Topic 22 in Course AAA2013J,Topic 22 in Course AAA2013J objectives
23,AAA2013J,Topic 23 in Course AAA2013J,Topic 23 in Course AAA2013J objectives
24,AAA2013J,Topic 24 in Course AAA2013J,Topic 24 in Course AAA2013J objectives
25,AAA2013J,Topic 25 in Course AAA2013J,Topic 25 in Course AAA2013J objectives
26,AAA2013J,Topic 26 in Course AAA2013J,Topic 26 in Course AAA2013J objectives
27,AAA2013J,Topic 27 in Course AAA2013J,Topic 27 in Course AAA2013J objectives
28,AAA2013J,Topic 28 in Course AAA2013J,Topic 28 in Course AAA2013J objectives
29,AAA2013J,Topic 29 in Course AAA2013J,Topic 29 in Course AAA2013J objectives
30,AAA2013J,Topic 30 in Course AAA2013J,Topic 30 in Course AAA2013J objectives
31,AAA2013J,Topic 31 in Course AAA2013J,Topic 31 in Course AAA2013J objectives
32,AAA2013J,Topic 32 in Course AAA2013J,Topic 32 in Course AAA2013J objectives
33,AAA2013J,Topic 33 in Course AAA2013J,Topic 33 in Course AAA2013J objectives
34,AAA2013J,Topic 34 in Course AAA2013J,Topic 34 in Course AAA2013J objectives
35,AAA2013J,Topic 35 in Course AAA2013J,Topic 35 in Course AAA2013J objectives
36,AAA2013J,Topic 36 in Course AAA2013J,Topic 36 in Course AAA2013J objectives
37,AAA2014J,Topic 37 in Course AAA2014J,Topic 37 in Course AAA2014J objectives
38,AAA2014J,Topic 38 in Course AAA2014J,Topic 38 in Course AAA2014J objectives
39,AAA2014J,Topic 39 in Course AAA2014J,Topic 39 in Course AAA2014J objectives
40,AAA2014J,Topic 40 in Course AAA2014J,Topic 40 in Course AAA2014J objectives
41,AAA2014J,Topic 41 in Course AAA2014J,Topic 41 in Course AAA2014J objectives
42,AAA2014J,Topic 42 in Course AAA2014J,Topic 42 in Course AAA2014J objectives
43,AAA2014J,Topic 43 in Course AAA2014J,Topic 43 in Course AAA2014J objectives
44,AAA2014J,Topic 44 in Course AAA2014J,Topic 44 in Course AAA2014J objectives
45,AAA2014J,Topic 45 in Course AAA2014J,Topic 45 in Course AAA2014J objectives
46,AAA2014J,Topic 46 in Course AAA2014J,Topic 46 in Course AAA2014J objectives
47,AAA2014J,Topic 47 in Course AAA2014J,Topic 47 in Course AAA2014J objectives
48,AAA2014J,Topic 48 in Course AAA2014J,Topic 48 in Course AAA2014J objectives
49,AAA2014J,Topic 49 in Course AAA2014J,Topic 49 in Course AAA2014J objectives
50,AAA2014J,Topic 50 in Course AAA2014J,Topic 50 in Course AAA2014J objectives
51,AAA2014J,Topic 51 in Course AAA2014J,Topic 51 in Course AAA2014J objectives
52,AAA2014J,Topic 52 in Course AAA2014J,Topic 52 in Course AAA2014J objectives
53,AAA2014J,Topic 53 in Course AAA2014J,Topic 53 in Course AAA2014J objectives
54,AAA2014J,Topic 54 in Course AAA2014J,Topic 54 in Course AAA2014J objectives
55,AAA2014J,Topic 55 in Course AAA2014J,Topic 55 in Course AAA2014J objectives
56,AAA2014J,Topic 56 in Course AAA2014J,Topic 56 in Course AAA2014J objectives
57,AAA2014J,Topic 57 in Course AAA2014J,Topic 57 in Course AAA2014J objectives
58,AAA2014J,Topic 58 in Course AAA2014J,Topic 58 in Course AAA2014J objectives
59,AAA2014J,Topic 59 in Course AAA2014J,Topic 59 in Course AAA2014J objectives
60,AAA2014J,Topic 60 in Course AAA2014J,Topic 60 in Course AAA2014J objectives
61,AAA2014J,Topic 61 in Course AAA2014J,Topic 61 in Course AAA2014J objectives
62,AAA2014J,Topic 62 in Course AAA2014J,Topic 62 in Course AAA2014J objectives
63,AAA2014J,Topic 63 in Course AAA2014J,Topic 63 in Course AAA2014J objectives
64,AAA2014J,Topic 64 in Course AAA2014J,Topic 64 in Course AAA2014J objectives
65,AAA2014J,Topic 65 in Course AAA2014J,Topic 65 in Course AAA2014J objectives
66,AAA2014J,Topic 66 in Course AAA2014J,Topic 66 in Course AAA2014J objectives
67,AAA2014J,Topic 67 in Course AAA2014J,Topic 67 in Course AAA2014J objectives
68,AAA2014J,Topic 68 in Course AAA2014J,Topic 68 in Course AAA2014J objectives
69,AAA2014J,Topic 69 in Course AAA2014J,Topic 69 in Course AAA2014J objectives
70,AAA2014J,Topic 70 in Course AAA2014J,Topic 70 in Course AAA2014J objectives
71,AAA2014J,Topic 71 in Course AAA2014J,Topic 71 in Course AAA2014J objectives
72,AAA2014J,Topic 72 in Course AAA2014J,Topic 72 in Course AAA2014J objectives
73,AAA2014J,Topic 73 in Course AAA2014J,Topic 73 in Course AAA2014J objectives
74,AAA2014J,Topic 74 in Course AAA2014J,Topic 74 in Course AAA2014J objectives
75,AAA2014J,Topic 75 in Course AAA2014J,Topic 75 in Course AAA2014J objectives
76,AAA2014J,Topic 76 in Course AAA2014J,Topic 76 in Course AAA2014J objectives
77,AAA2014J,Topic 77 in Course AAA2014J,Topic 77 in Course AAA2014J objectives
78,BBB2013B,Topic 78 in Course BBB2013B,Topic 78 in Course BBB2013B objectives
79,BBB2013B,Topic 79 in Course BBB2013B,Topic 79 in Course BBB2013B objectives
80,BBB2013B,Topic 80 in Course BBB2013B,Topic 80 in Course BBB2013B objectives
81,BBB2013B,Topic 81 in Course BBB2013B,Topic 81 in Course BBB2013B objectives
82,BBB2013B,Topic 82 in Course BBB2013B,Topic 82 in Course BBB2013B objectives
83,BBB2013B,Topic 83 in Course BBB2013B,Topic 83 in Course BBB2013B objectives
84,BBB2013B,Topic 84 in Course BBB2013B,Topic 84 in Course BBB2013B objectives
85,BBB2013B,Topic 85 in Course BBB2013B,Topic 85 in Course BBB2013B objectives
86,BBB2013B,Topic 86 in Course BBB2013B,Topic 86 in Course BBB2013B objectives
87,BBB2013B,Topic 87 in Course BBB2013B,Topic 87 in Course BBB2013B objectives
88,BBB2013B,Topic 88 in Course BBB2013B,Topic 88 in Course BBB2013B objectives
89,BBB2013B,Topic 89 in Course BBB2013B,Topic 89 in Course BBB2013B objectives
90,BBB2013B,Topic 90 in Course BBB2013B,Topic 90 in Course BBB2013B objectives
91,BBB2013B,Topic 91 in Course BBB2013B,Topic 91 in Course BBB2013B objectives
92,BBB2013B,Topic 92 in Course BBB2013B,Topic 92 in Course BBB2013B objectives
93,BBB2013B,Topic 93 in Course BBB2013B,Topic 93 in Course BBB2013B objectives
94,BBB2013B,Topic 94 in Course BBB2013B,Topic 94 in Course BBB2013B objectives
95,BBB2013B,Topic 95 in Course BBB2013B,Topic 95 in Course BBB2013B objectives
96,BBB2013B,Topic 96 in Course BBB2013B,Topic 96 in Course BBB2013B objectives
97,BBB2013B,Topic 97 in Course BBB2013B,Topic 97 in Course BBB2013B objectives
98,BBB2013B,Topic 98 in Course BBB2013B,Topic 98 in Course BBB2013B objectives
99,BBB2013B,Topic 99 in Course BBB2013B,Topic 99 in Course BBB2013B objectives
100,BBB2013B,Topic 100 in Course BBB2013B,Topic 100 in Course BBB2013B objectives
101,BBB2013B,Topic 101 in Course BBB2013B,Topic 101 in Course BBB2013B objectives
102,BBB2013B,Topic 102 in Course BBB2013B,Topic 102 in Course BBB2013B objectives
103,BBB2013B,Topic 103 in Course BBB2013B,Topic 103 in Course BBB2013B objectives
104,BBB2013B,Topic 104 in Course BBB2013B,Topic 104 in Course BBB2013B objectives
105,BBB2013B,Topic 105 in Course BBB2013B,Topic 105 in Course BBB2013B objectives
106,BBB2013B,Topic 106 in Course BBB2013B,Topic 106 in Course BBB2013B objectives
107,BBB2013B,Topic 107 in Course BBB2013B,Topic 107 in Course BBB2013B objectives
108,BBB2013B,Topic 108 in Course BBB2013B,Topic 108 in Course BBB2013B objectives
109,BBB2013B,Topic 109 in Course BBB2013B,Topic 109 in Course BBB2013B objectives
110,BBB2013J,Topic 110 in Course BBB2013J,Topic 110 in Course BBB2013J objectives
111,BBB2013J,Topic 111 in Course BBB2013J,Topic 111 in Course BBB2013J objectives
112,BBB2013J,Topic 112 in Course BBB2013J,Topic 112 in Course BBB2013J objectives
113,BBB2013J,Topic 113 in Course BBB2013J,Topic 113 in Course BBB2013J objectives
114,BBB2013J,Topic 114 in Course BBB2013J,Topic 114 in Course BBB2013J objectives
115,BBB2013J,Topic 115 in Course BBB2013J,Topic 115 in Course BBB2013J objectives
116,BBB2013J,Topic 116 in Course BBB2013J,Topic 116 in Course BBB2013J objectives
117,BBB2013J,Topic 117 in Course BBB2013J,Topic 117 in Course BBB2013J objectives
118,BBB2013J,Topic 118 in Course BBB2013J,Topic 118 in Course BBB2013J objectives
119,BBB2013J,Topic 119 in Course BBB2013J,Topic 119 in Course BBB2013J objectives
120,BBB2013J,Topic 120 in Course BBB2013J,Topic 120 in Course BBB2013J objectives
121,BBB2013J,Topic 121 in Course BBB2013J,Topic 121 in Course BBB2013J objectives
122,BBB2013J,Topic 122 in Course BBB2013J,Topic 122 in Course BBB2013J objectives
123,BBB2013J,Topic 123 in Course BBB2013J,Topic 123 in Course BBB2013J objectives
124,BBB2013J,Topic 124 in Course BBB2013J,Topic 124 in Course BBB2013J objectives
125,BBB2013J,Topic 125 in Course BBB2013J,Topic 125 in Course BBB2013J objectives
126,BBB2013J,Topic 126 in Course BBB2013J,Topic 126 in Course BBB2013J objectives
127,BBB2013J,Topic 127 in Course BBB2013J,Topic 127 in Course BBB2013J objectives
128,BBB2013J,Topic 128 in Course BBB2013J,Topic 128 in Course BBB2013J objectives
129,BBB2013J,Topic 129 in Course BBB2013J,Topic 129 in Course BBB2013J objectives
130,BBB2013J,Topic 130 in Course BBB2013J,Topic 130 in Course BBB2013J objectives
131,BBB2013J,Topic 131 in Course BBB2013J,Topic 131 in Course BBB2013J objectives
132,BBB2013J,Topic 132 in Course BBB2013J,Topic 132 in Course BBB2013J objectives
133,BBB2013J,Topic 133 in Course BBB2013J,Topic 133 in Course BBB2013J objectives
134,BBB2013J,Topic 134 in Course BBB2013J,Topic 134 in Course BBB2013J objectives
135,BBB2013J,Topic 135 in Course BBB2013J,Topic 135 in Course BBB2013J objectives
136,BBB2013J,Topic 136 in Course BBB2013J,Topic 136 in Course BBB2013J objectives
137,BBB2013J,Topic 137 in Course BBB2013J,Topic 137 in Course BBB2013J objectives
138,BBB2013J,Topic 138 in Course BBB2013J,Topic 138 in Course BBB2013J objectives
139,BBB2013J,Topic 139 in Course BBB2013J,Topic 139 in Course BBB2013J objectives
140,BBB2013J,Topic 140 in Course BBB2013J,Topic 140 in Course BBB2013J objectives
141,BBB2013J,Topic 141 in Course BBB2013J,Topic 141 in Course BBB2013J objectives
142,BBB2013J,Topic 142 in Course BBB2013J,Topic 142 in Course BBB2013J objectives
143,BBB2013J,Topic 143 in Course BBB2013J,Topic 143 in Course BBB2013J objectives
144,BBB2013J,Topic 144 in Course BBB2013J,Topic 144 in Course BBB2013J objectives
145,BBB2013J,Topic 145 in Course BBB2013J,Topic 145 in Course BBB2013J objectives
146,BBB2013J,Topic 146 in Course BBB2013J,Topic 146 in Course BBB2013J objectives
147,BBB2013J,Topic 147 in Course BBB2013J,Topic 147 in Course BBB2013J objectives
148,BBB2013J,Topic 148 in Course BBB2013J,Topic 148 in Course BBB2013J objectives
149,BBB2013J,Topic 149 in Course BBB2013J,Topic 149 in Course BBB2013J objectives
150,BBB2013J,Topic 150 in Course BBB2013J,Topic 150 in Course BBB2013J objectives
151,BBB2013J,Topic 151 in Course BBB2013J,Topic 151 in Course BBB2013J objectives
152,BBB2013J,Topic 152 in Course BBB2013J,Topic 152 in Course BBB2013J objectives
153,BBB2013J,Topic 153 in Course BBB2013J,Topic 153 in Course BBB2013J objectives
154,BBB2013J,Topic 154 in Course BBB2013J,Topic 154 in Course BBB2013J objectives
155,BBB2013J,Topic 155 in Course BBB2013J,Topic 155 in Course BBB2013J objectives
156,BBB2014B,Topic 156 in Course BBB2014B,Topic 156 in Course BBB2014B objectives
157,BBB2014B,Topic 157 in Course BBB2014B,Topic 157 in Course BBB2014B objectives
158,BBB2014B,Topic 158 in Course BBB2014B,Topic 158 in Course BBB2014B objectives
159,BBB2014B,Topic 159 in Course BBB2014B,Topic 159 in Course BBB2014B objectives
160,BBB2014B,Topic 160 in Course BBB2014B,Topic 160 in Course BBB2014B objectives
161,BBB2014B,Topic 161 in Course BBB2014B,Topic 161 in Course BBB2014B objectives
162,BBB2014B,Topic 162 in Course BBB2014B,Topic 162 in Course BBB2014B objectives
163,BBB2014B,Topic 163 in Course BBB2014B,Topic 163 in Course BBB2014B objectives
164,BBB2014B,Topic 164 in Course BBB2014B,Topic 164 in Course BBB2014B objectives
165,BBB2014B,Topic 165 in Course BBB2014B,Topic 165 in Course BBB2014B objectives
166,BBB2014B,Topic 166 in Course BBB2014B,Topic 166 in Course BBB2014B objectives
167,BBB2014B,Topic 167 in Course BBB2014B,Topic 167 in Course BBB2014B objectives
168,BBB2014B,Topic 168 in Course BBB2014B,Topic 168 in Course BBB2014B objectives
169,BBB2014B,Topic 169 in Course BBB2014B,Topic 169 in Course BBB2014B objectives
170,BBB2014B,Topic 170 in Course BBB2014B,Topic 170 in Course BBB2014B objectives
171,BBB2014B,Topic 171 in Course BBB2014B,Topic 171 in Course BBB2014B objectives
172,BBB2014B,Topic 172 in Course BBB2014B,Topic 172 in Course BBB2014B objectives
173,BBB2014B,Topic 173 in Course BBB2014B,Topic 173 in Course BBB2014B objectives
174,BBB2014B,Topic 174 in Course BBB2014B,Topic 174 in Course BBB2014B objectives
175,BBB2014B,Topic 175 in Course BBB2014B,Topic 175 in Course BBB2014B objectives
176,BBB2014B,Topic 176 in Course BBB2014B,Topic 176 in Course BBB2014B objectives
177,BBB2014B,Topic 177 in Course BBB2014B,Topic 177 in Course BBB2014B objectives
178,BBB2014B,Topic 178 in Course BBB2014B,Topic 178 in Course BBB2014B objectives
179,BBB2014B,Topic 179 in Course BBB2014B,Topic 179 in Course BBB2014B objectives
180,BBB2014B,Topic 180 in Course BBB2014B,Topic 180 in Course BBB2014B objectives
181,BBB2014B,Topic 181 in Course BBB2014B,Topic 181 in Course BBB2014B objectives
182,BBB2014B,Topic 182 in Course BBB2014B,Topic 182 in Course BBB2014B objectives
183,BBB2014B,Topic 183 in Course BBB2014B,Topic 183 in Course BBB2014B objectives
184,BBB2014B,Topic 184 in Course BBB2014B,Topic 184 in Course BBB2014B objectives
185,BBB2014B,Topic 185 in Course BBB2014B,Topic 185 in Course BBB2014B objectives
186,BBB2014B,Topic 186 in Course BBB2014B,Topic 186 in Course BBB2014B objectives
187,BBB2014B,Topic 187 in Course BBB2014B,Topic 187 in Course BBB2014B objectives
188,BBB2014B,Topic 188 in Course BBB2014B,Topic 188 in Course BBB2014B objectives
189,BBB2014B,Topic 189 in Course BBB2014B,Topic 189 in Course BBB2014B objectives
190,BBB2014B,Topic 190 in Course BBB2014B,Topic 190 in Course BBB2014B objectives
191,BBB2014B,Topic 191 in Course BBB2014B,Topic 191 in Course BBB2014B objectives
192,BBB2014B,Topic 192 in Course BBB2014B,Topic 192 in Course BBB2014B objectives
193,BBB2014B,Topic 193 in Course BBB2014B,Topic 193 in Course BBB2014B objectives
194,BBB2014B,Topic 194 in Course BBB2014B,Topic 194 in Course BBB2014B objectives
195,BBB2014B,Topic 195 in Course BBB2014B,Topic 195 in Course BBB2014B objectives
196,BBB2014B,Topic 196 in Course BBB2014B,Topic 196 in Course BBB2014B objectives
197,BBB2014B,Topic 197 in Course BBB2014B,Topic 197 in Course BBB2014B objectives
198,BBB2014B,Topic 198 in Course BBB2014B,Topic 198 in Course BBB2014B objectives
199,BBB2014B,Topic 199 in Course BBB2014B,Topic 199 in Course BBB2014B objectives
200,BBB2014B,Topic 200 in Course BBB2014B,Topic 200 in Course BBB2014B objectives
201,BBB2014B,Topic 201 in Course BBB2014B,Topic 201 in Course BBB2014B objectives
202,BBB2014B,Topic 202 in Course BBB2014B,Topic 202 in Course BBB2014B objectives
203,BBB2014B,Topic 203 in Course BBB2014B,Topic 203 in Course BBB2014B objectives
204,BBB2014B,Topic 204 in Course BBB2014B,Topic 204 in Course BBB2014B objectives
205,BBB2014B,Topic 205 in Course BBB2014B,Topic 205 in Course BBB2014B objectives
206,BBB2014B,Topic 206 in Course BBB2014B,Topic 206 in Course BBB2014B objectives
207,BBB2014B,Topic 207 in Course BBB2014B,Topic 207 in Course BBB2014B objectives
208,BBB2014B,Topic 208 in Course BBB2014B,Topic 208 in Course BBB2014B objectives
209,BBB2014B,Topic 209 in Course BBB2014B,Topic 209 in Course BBB2014B objectives
210,BBB2014B,Topic 210 in Course BBB2014B,Topic 210 in Course BBB2014B objectives
211,BBB2014B,Topic 211 in Course BBB2014B,Topic 211 in Course BBB2014B objectives
212,BBB2014B,Topic 212 in Course BBB2014B,Topic 212 in Course BBB2014B objectives
213,BBB2014B,Topic 213 in Course BBB2014B,Topic 213 in Course BBB2014B objectives
214,BBB2014B,Topic 214 in Course BBB2014B,Topic 214 in Course BBB2014B objectives
215,BBB2014B,Topic 215 in Course BBB2014B,Topic 215 in Course BBB2014B objectives
216,BBB2014B,Topic 216 in Course BBB2014B,Topic 216 in Course BBB2014B objectives
217,BBB2014B,Topic 217 in Course BBB2014B,Topic 217 in Course BBB2014B objectives
218,BBB2014B,Topic 218 in Course BBB2014B,Topic 218 in Course BBB2014B objectives
219,BBB2014J,Topic 219 in Course BBB2014J,Topic 219 in Course BBB2014J objectives
220,BBB2014J,Topic 220 in Course BBB2014J,Topic 220 in Course BBB2014J objectives
221,BBB2014J,Topic 221 in Course BBB2014J,Topic 221 in Course BBB2014J objectives
222,BBB2014J,Topic 222 in Course BBB2014J,Topic 222 in Course BBB2014J objectives
223,BBB2014J,Topic 223 in Course BBB2014J,Topic 223 in Course BBB2014J objectives
224,BBB2014J,Topic 224 in Course BBB2014J,Topic 224 in Course BBB2014J objectives
225,BBB2014J,Topic 225 in Course BBB2014J,Topic 225 in Course BBB2014J objectives
226,BBB2014J,Topic 226 in Course BBB2014J,Topic 226 in Course BBB2014J objectives
227,BBB2014J,Topic 227 in Course BBB2014J,Topic 227 in Course BBB2014J objectives
228,BBB2014J,Topic 228 in Course BBB2014J,Topic 228 in Course BBB2014J objectives
229,BBB2014J,Topic 229 in Course BBB2014J,Topic 229 in Course BBB2014J objectives
230,BBB2014J,Topic 230 in Course BBB2014J,Topic 230 in Course BBB2014J objectives
231,BBB2014J,Topic 231 in Course BBB2014J,Topic 231 in Course BBB2014J objectives
232,BBB2014J,Topic 232 in Course BBB2014J,Topic 232 in Course BBB2014J objectives
233,BBB2014J,Topic 233 in Course BBB2014J,Topic 233 in Course BBB2014J objectives
234,BBB2014J,Topic 234 in Course BBB2014J,Topic 234 in Course BBB2014J objectives
235,BBB2014J,Topic 235 in Course BBB2014J,Topic 235 in Course BBB2014J objectives
236,BBB2014J,Topic 236 in Course BBB2014J,Topic 236 in Course BBB2014J objectives
237,BBB2014J,Topic 237 in Course BBB2014J,Topic 237 in Course BBB2014J objectives
238,BBB2014J,Topic 238 in Course BBB2014J,Topic 238 in Course BBB2014J objectives
239,BBB2014J,Topic 239 in Course BBB2014J,Topic 239 in Course BBB2014J objectives
240,BBB2014J,Topic 240 in Course BBB2014J,Topic 240 in Course BBB2014J objectives
241,BBB2014J,Topic 241 in Course BBB2014J,Topic 241 in Course BBB2014J objectives
242,BBB2014J,Topic 242 in Course BBB2014J,Topic 242 in Course BBB2014J objectives
243,BBB2014J,Topic 243 in Course BBB2014J,Topic 243 in Course BBB2014J objectives
244,BBB2014J,Topic 244 in Course BBB2014J,Topic 244 in Course BBB2014J objectives
245,BBB2014J,Topic 245 in Course BBB2014J,Topic 245 in Course BBB2014J objectives
246,BBB2014J,Topic 246 in Course BBB2014J,Topic 246 in Course BBB2014J objectives
247,BBB2014J,Topic 247 in Course BBB2014J,Topic 247 in Course BBB2014J objectives
248,BBB2014J,Topic 248 in Course BBB2014J,Topic 248 in Course BBB2014J objectives
249,CCC2014B,Topic 249 in Course CCC2014B,Topic 249 in Course CCC2014B objectives
250,CCC2014B,Topic 250 in Course CCC2014B,Topic 250 in Course CCC2014B objectives
251,CCC2014B,Topic 251 in Course CCC2014B,Topic 251 in Course CCC2014B objectives
252,CCC2014B,Topic 252 in Course CCC2014B,Topic 252 in Course CCC2014B objectives
253,CCC2014B,Topic 253 in Course CCC2014B,Topic 253 in Course CCC2014B objectives
254,CCC2014B,Topic 254 in Course CCC2014B,Topic 254 in Course CCC2014B objectives
255,CCC2014B,Topic 255 in Course CCC2014B,Topic 255 in Course CCC2014B objectives
256,CCC2014B,Topic 256 in Course CCC2014B,Topic 256 in Course CCC2014B objectives
257,CCC2014B,Topic 257 in Course CCC2014B,Topic 257 in Course CCC2014B objectives
258,CCC2014B,Topic 258 in Course CCC2014B,Topic 258 in Course CCC2014B objectives
259,CCC2014B,Topic 259 in Course CCC2014B,Topic 259 in Course CCC2014B objectives
260,CCC2014B,Topic 260 in Course CCC2014B,Topic 260 in Course CCC2014B objectives
261,CCC2014B,Topic 261 in Course CCC2014B,Topic 261 in Course CCC2014B objectives
262,CCC2014B,Topic 262 in Course CCC2014B,Topic 262 in Course CCC2014B objectives
263,CCC2014B,Topic 263 in Course CCC2014B,Topic 263 in Course CCC2014B objectives
264,CCC2014B,Topic 264 in Course CCC2014B,Topic 264 in Course CCC2014B objectives
265,CCC2014B,Topic 265 in Course CCC2014B,Topic 265 in Course CCC2014B objectives
266,CCC2014B,Topic 266 in Course CCC2014B,Topic 266 in Course CCC2014B objectives
267,CCC2014B,Topic 267 in Course CCC2014B,Topic 267 in Course CCC2014B objectives
268,CCC2014B,Topic 268 in Course CCC2014B,Topic 268 in Course CCC2014B objectives
269,CCC2014B,Topic 269 in Course CCC2014B,Topic 269 in Course CCC2014B objectives
270,CCC2014B,Topic 270 in Course CCC2014B,Topic 270 in Course CCC2014B objectives
271,CCC2014J,Topic 271 in Course CCC2014J,Topic 271 in Course CCC2014J objectives
272,CCC2014J,Topic 272 in Course CCC2014J,Topic 272 in Course CCC2014J objectives
273,CCC2014J,Topic 273 in Course CCC2014J,Topic 273 in Course CCC2014J objectives
274,CCC2014J,Topic 274 in Course CCC2014J,Topic 274 in Course CCC2014J objectives
275,CCC2014J,Topic 275 in Course CCC2014J,Topic 275 in Course CCC2014J objectives
276,CCC2014J,Topic 276 in Course CCC2014J,Topic 276 in Course CCC2014J objectives
277,CCC2014J,Topic 277 in Course CCC2014J,Topic 277 in Course CCC2014J objectives
278,CCC2014J,Topic 278 in Course CCC2014J,Topic 278 in Course CCC2014J objectives
279,CCC2014J,Topic 279 in Course CCC2014J,Topic 279 in Course CCC2014J objectives
280,CCC2014J,Topic 280 in Course CCC2014J,Topic 280 in Course CCC2014J objectives
281,CCC2014J,Topic 281 in Course CCC2014J,Topic 281 in Course CCC2014J objectives
282,CCC2014J,Topic 282 in Course CCC2014J,Topic 282 in Course CCC2014J objectives
283,CCC2014J,Topic 283 in Course CCC2014J,Topic 283 in Course CCC2014J objectives
284,CCC2014J,Topic 284 in Course CCC2014J,Topic 284 in Course CCC2014J objectives
285,CCC2014J,Topic 285 in Course CCC2014J,Topic 285 in Course CCC2014J objectives
286,CCC2014J,Topic 286 in Course CCC2014J,Topic 286 in Course CCC2014J objectives
287,CCC2014J,Topic 287 in Course CCC2014J,Topic 287 in Course CCC2014J objectives
288,CCC2014J,Topic 288 in Course CCC2014J,Topic 288 in Course CCC2014J objectives
289,CCC2014J,Topic 289 in Course CCC2014J,Topic 289 in Course CCC2014J objectives
290,CCC2014J,Topic 290 in Course CCC2014J,Topic 290 in Course CCC2014J objectives
291,CCC2014J,Topic 291 in Course CCC2014J,Topic 291 in Course CCC2014J objectives
292,CCC2014J,Topic 292 in Course CCC2014J,Topic 292 in Course CCC2014J objectives
293,CCC2014J,Topic 293 in Course CCC2014J,Topic 293 in Course CCC2014J objectives
294,CCC2014J,Topic 294 in Course CCC2014J,Topic 294 in Course CCC2014J objectives
295,CCC2014J,Topic 295 in Course CCC2014J,Topic 295 in Course CCC2014J objectives
296,DDD2013B,Topic 296 in Course DDD2013B,Topic 296 in Course DDD2013B objectives
297,DDD2013B,Topic 297 in Course DDD2013B,Topic 297 in Course DDD2013B objectives
298,DDD2013B,Topic 298 in Course DDD2013B,Topic 298 in Course DDD2013B objectives
299,DDD2013B,Topic 299 in Course DDD2013B,Topic 299 in Course DDD2013B objectives
300,DDD2013B,Topic 300 in Course DDD2013B,Topic 300 in Course DDD2013B objectives
301,DDD2013B,Topic 301 in Course DDD2013B,Topic 301 in Course DDD2013B objectives
302,DDD2013B,Topic 302 in Course DDD2013B,Topic 302 in Course DDD2013B objectives
303,DDD2013B,Topic 303 in Course DDD2013B,Topic 303 in Course DDD2013B objectives
304,DDD2013B,Topic 304 in Course DDD2013B,Topic 304 in Course DDD2013B objectives
305,DDD2013B,Topic 305 in Course DDD2013B,Topic 305 in Course DDD2013B objectives
306,DDD2013B,Topic 306 in Course DDD2013B,Topic 306 in Course DDD2013B objectives
307,DDD2013B,Topic 307 in Course DDD2013B,Topic 307 in Course DDD2013B objectives
308,DDD2013B,Topic 308 in Course DDD2013B,Topic 308 in Course DDD2013B objectives
309,DDD2013B,Topic 309 in Course DDD2013B,Topic 309 in Course DDD2013B objectives
310,DDD2013B,Topic 310 in Course DDD2013B,Topic 310 in Course DDD2013B objectives
311,DDD2013B,Topic 311 in Course DDD2013B,Topic 311 in Course DDD2013B objectives
312,DDD2013B,Topic 312 in Course DDD2013B,Topic 312 in Course DDD2013B objectives
313,DDD2013B,Topic 313 in Course DDD2013B,Topic 313 in Course DDD2013B objectives
314,DDD2013B,Topic 314 in Course DDD2013B,Topic 314 in Course DDD2013B objectives
315,DDD2013B,Topic 315 in Course DDD2013B,Topic 315 in Course DDD2013B objectives
316,DDD2013B,Topic 316 in Course DDD2013B,Topic 316 in Course DDD2013B objectives
317,DDD2013B,Topic 317 in Course DDD2013B,Topic 317 in Course DDD2013B objectives
318,DDD2013B,Topic 318 in Course DDD2013B,Topic 318 in Course DDD2013B objectives
319,DDD2013B,Topic 319 in Course DDD2013B,Topic 319 in Course DDD2013B objectives
320,DDD2013B,Topic 320 in Course DDD2013B,Topic 320 in Course DDD2013B objectives
321,DDD2013B,Topic 321 in Course DDD2013B,Topic 321 in Course DDD2013B objectives
322,DDD2013B,Topic 322 in Course DDD2013B,Topic 322 in Course DDD2013B objectives
323,DDD2013B,Topic 323 in Course DDD2013B,Topic 323 in Course DDD2013B objectives
324,DDD2013B,Topic 324 in Course DDD2013B,Topic 324 in Course DDD2013B objectives
325,DDD2013B,Topic 325 in Course DDD2013B,Topic 325 in Course DDD2013B objectives
326,DDD2013B,Topic 326 in Course DDD2013B,Topic 326 in Course DDD2013B objectives
327,DDD2013B,Topic 327 in Course DDD2013B,Topic 327 in Course DDD2013B objectives
328,DDD2013B,Topic 328 in Course DDD2013B,Topic 328 in Course DDD2013B objectives
329,DDD2013B,Topic 329 in Course DDD2013B,Topic 329 in Course DDD2013B objectives
330,DDD2013B,Topic 330 in Course DDD2013B,Topic 330 in Course DDD2013B objectives
331,DDD2013B,Topic 331 in Course DDD2013B,Topic 331 in Course DDD2013B objectives
332,DDD2013B,Topic 332 in Course DDD2013B,Topic 332 in Course DDD2013B objectives
333,DDD2013B,Topic 333 in Course DDD2013B,Topic 333 in Course DDD2013B objectives
334,DDD2013B,Topic 334 in Course DDD2013B,Topic 334 in Course DDD2013B objectives
335,DDD2013B,Topic 335 in Course DDD2013B,Topic 335 in Course DDD2013B objectives
336,DDD2013B,Topic 336 in Course DDD2013B,Topic 336 in Course DDD2013B objectives
337,DDD2013B,Topic 337 in Course DDD2013B,Topic 337 in Course DDD2013B objectives
338,DDD2013B,Topic 338 in Course DDD2013B,Topic 338 in Course DDD2013B objectives
339,DDD2013B,Topic 339 in Course DDD2013B,Topic 339 in Course DDD2013B objectives
340,DDD2013B,Topic 340 in Course DDD2013B,Topic 340 in Course DDD2013B objectives
341,DDD2013B,Topic 341 in Course DDD2013B,Topic 341 in Course DDD2013B objectives
342,DDD2013B,Topic 342 in Course DDD2013B,Topic 342 in Course DDD2013B objectives
343,DDD2013B,Topic 343 in Course DDD2013B,Topic 343 in Course DDD2013B objectives
344,DDD2013B,Topic 344 in Course DDD2013B,Topic 344 in Course DDD2013B objectives
345,DDD2013B,Topic 345 in Course DDD2013B,Topic 345 in Course DDD2013B objectives
346,DDD2013B,Topic 346 in Course DDD2013B,Topic 346 in Course DDD2013B objectives
347,DDD2013B,Topic 347 in Course DDD2013B,Topic 347 in Course DDD2013B objectives
348,DDD2013B,Topic 348 in Course DDD2013B,Topic 348 in Course DDD2013B objectives
349,DDD2013B,Topic 349 in Course DDD2013B,Topic 349 in Course DDD2013B objectives
350,DDD2013B,Topic 350 in Course DDD2013B,Topic 350 in Course DDD2013B objectives
351,DDD2013B,Topic 351 in Course DDD2013B,Topic 351 in Course DDD2013B objectives
352,DDD2013B,Topic 352 in Course DDD2013B,Topic 352 in Course DDD2013B objectives
353,DDD2013B,Topic 353 in Course DDD2013B,Topic 353 in Course DDD2013B objectives
354,DDD2013B,Topic 354 in Course DDD2013B,Topic 354 in Course DDD2013B objectives
355,DDD2013B,Topic 355 in Course DDD2013B,Topic 355 in Course DDD2013B objectives
356,DDD2013B,Topic 356 in Course DDD2013B,Topic 356 in Course DDD2013B objectives
357,DDD2013B,Topic 357 in Course DDD2013B,Topic 357 in Course DDD2013B objectives
358,DDD2013B,Topic 358 in Course DDD2013B,Topic 358 in Course DDD2013B objectives
359,DDD2013B,Topic 359 in Course DDD2013B,Topic 359 in Course DDD2013B objectives
360,DDD2013B,Topic 360 in Course DDD2013B,Topic 360 in Course DDD2013B objectives
361,DDD2013B,Topic 361 in Course DDD2013B,Topic 361 in Course DDD2013B objectives
362,DDD2013B,Topic 362 in Course DDD2013B,Topic 362 in Course DDD2013B objectives
363,DDD2013B,Topic 363 in Course DDD2013B,Topic 363 in Course DDD2013B objectives
364,DDD2013B,Topic 364 in Course DDD2013B,Topic 364 in Course DDD2013B objectives
365,DDD2013B,Topic 365 in Course DDD2013B,Topic 365 in Course DDD2013B objectives
366,DDD2013B,Topic 366 in Course DDD2013B,Topic 366 in Course DDD2013B objectives
367,DDD2013B,Topic 367 in Course DDD2013B,Topic 367 in Course DDD2013B objectives
368,DDD2013J,Topic 368 in Course DDD2013J,Topic 368 in Course DDD2013J objectives
369,DDD2013J,Topic 369 in Course DDD2013J,Topic 369 in Course DDD2013J objectives
370,DDD2013J,Topic 370 in Course DDD2013J,Topic 370 in Course DDD2013J objectives
371,DDD2013J,Topic 371 in Course DDD2013J,Topic 371 in Course DDD2013J objectives
372,DDD2013J,Topic 372 in Course DDD2013J,Topic 372 in Course DDD2013J objectives
373,DDD2013J,Topic 373 in Course DDD2013J,Topic 373 in Course DDD2013J objectives
374,DDD2013J,Topic 374 in Course DDD2013J,Topic 374 in Course DDD2013J objectives
375,DDD2013J,Topic 375 in Course DDD2013J,Topic 375 in Course DDD2013J objectives
376,DDD2013J,Topic 376 in Course DDD2013J,Topic 376 in Course DDD2013J objectives
377,DDD2013J,Topic 377 in Course DDD2013J,Topic 377 in Course DDD2013J objectives
378,DDD2013J,Topic 378 in Course DDD2013J,Topic 378 in Course DDD2013J objectives
379,DDD2013J,Topic 379 in Course DDD2013J,Topic 379 in Course DDD2013J objectives
380,DDD2013J,Topic 380 in Course DDD2013J,Topic 380 in Course DDD2013J objectives
381,DDD2013J,Topic 381 in Course DDD2013J,Topic 381 in Course DDD2013J objectives
382,DDD2013J,Topic 382 in Course DDD2013J,Topic 382 in Course DDD2013J objectives
383,DDD2013J,Topic 383 in Course DDD2013J,Topic 383 in Course DDD2013J objectives
384,DDD2013J,Topic 384 in Course DDD2013J,Topic 384 in Course DDD2013J objectives
385,DDD2013J,Topic 385 in Course DDD2013J,Topic 385 in Course DDD2013J objectives
386,DDD2013J,Topic 386 in Course DDD2013J,Topic 386 in Course DDD2013J objectives
387,DDD2013J,Topic 387 in Course DDD2013J,Topic 387 in Course DDD2013J objectives
388,DDD2013J,Topic 388 in Course DDD2013J,Topic 388 in Course DDD2013J objectives
389,DDD2013J,Topic 389 in Course DDD2013J,Topic 389 in Course DDD2013J objectives
390,DDD2013J,Topic 390 in Course DDD2013J,Topic 390 in Course DDD2013J objectives
391,DDD2013J,Topic 391 in Course DDD2013J,Topic 391 in Course DDD2013J objectives
392,DDD2013J,Topic 392 in Course DDD2013J,Topic 392 in Course DDD2013J objectives
393,DDD2013J,Topic 393 in Course DDD2013J,Topic 393 in Course DDD2013J objectives
394,DDD2013J,Topic 394 in Course DDD2013J,Topic 394 in Course DDD2013J objectives
395,DDD2013J,Topic 395 in Course DDD2013J,Topic 395 in Course DDD2013J objectives
396,DDD2013J,Topic 396 in Course DDD2013J,Topic 396 in Course DDD2013J objectives
397,DDD2013J,Topic 397 in Course DDD2013J,Topic 397 in Course DDD2013J objectives
398,DDD2013J,Topic 398 in Course DDD2013J,Topic 398 in Course DDD2013J objectives
399,DDD2013J,Topic 399 in Course DDD2013J,Topic 399 in Course DDD2013J objectives
400,DDD2013J,Topic 400 in Course DDD2013J,Topic 400 in Course DDD2013J objectives
401,DDD2013J,Topic 401 in Course DDD2013J,Topic 401 in Course DDD2013J objectives
402,DDD2013J,Topic 402 in Course DDD2013J,Topic 402 in Course DDD2013J objectives
403,DDD2013J,Topic 403 in Course DDD2013J,Topic 403 in Course DDD2013J objectives
404,DDD2013J,Topic 404 in Course DDD2013J,Topic 404 in Course DDD2013J objectives
405,DDD2013J,Topic 405 in Course DDD2013J,Topic 405 in Course DDD2013J objectives
406,DDD2013J,Topic 406 in Course DDD2013J,Topic 406 in Course DDD2013J objectives
407,DDD2013J,Topic 407 in Course DDD2013J,Topic 407 in Course DDD2013J objectives
408,DDD2013J,Topic 408 in Course DDD2013J,Topic 408 in Course DDD2013J objectives
409,DDD2013J,Topic 409 in Course DDD2013J,Topic 409 in Course DDD2013J objectives
410,DDD2013J,Topic 410 in Course DDD2013J,Topic 410 in Course DDD2013J objectives
411,DDD2013J,Topic 411 in Course DDD2013J,Topic 411 in Course DDD2013J objectives
412,DDD2013J,Topic 412 in Course DDD2013J,Topic 412 in Course DDD2013J objectives
413,DDD2013J,Topic 413 in Course DDD2013J,Topic 413 in Course DDD2013J objectives
414,DDD2013J,Topic 414 in Course DDD2013J,Topic 414 in Course DDD2013J objectives
415,DDD2013J,Topic 415 in Course DDD2013J,Topic 415 in Course DDD2013J objectives
416,DDD2013J,Topic 416 in Course DDD2013J,Topic 416 in Course DDD2013J objectives
417,DDD2013J,Topic 417 in Course DDD2013J,Topic 417 in Course DDD2013J objectives
418,DDD2013J,Topic 418 in Course DDD2013J,Topic 418 in Course DDD2013J objectives
419,DDD2013J,Topic 419 in Course DDD2013J,Topic 419 in Course DDD2013J objectives
420,DDD2013J,Topic 420 in Course DDD2013J,Topic 420 in Course DDD2013J objectives
421,DDD2013J,Topic 421 in Course DDD2013J,Topic 421 in Course DDD2013J objectives
422,DDD2013J,Topic 422 in Course DDD2013J,Topic 422 in Course DDD2013J objectives
423,DDD2013J,Topic 423 in Course DDD2013J,Topic 423 in Course DDD2013J objectives
424,DDD2013J,Topic 424 in Course DDD2013J,Topic 424 in Course DDD2013J objectives
425,DDD2013J,Topic 425 in Course DDD2013J,Topic 425 in Course DDD2013J objectives
426,DDD2013J,Topic 426 in Course DDD2013J,Topic 426 in Course DDD2013J objectives
427,DDD2013J,Topic 427 in Course DDD2013J,Topic 427 in Course DDD2013J objectives
428,DDD2013J,Topic 428 in Course DDD2013J,Topic 428 in Course DDD2013J objectives
429,DDD2013J,Topic 429 in Course DDD2013J,Topic 429 in Course DDD2013J objectives
430,DDD2013J,Topic 430 in Course DDD2013J,Topic 430 in Course DDD2013J objectives
431,DDD2013J,Topic 431 in Course DDD2013J,Topic 431 in Course DDD2013J objectives
432,DDD2013J,Topic 432 in Course DDD2013J,Topic 432 in Course DDD2013J objectives
433,DDD2013J,Topic 433 in Course DDD2013J,Topic 433 in Course DDD2013J objectives
434,DDD2013J,Topic 434 in Course DDD2013J,Topic 434 in Course DDD2013J objectives
435,DDD2013J,Topic 435 in Course DDD2013J,Topic 435 in Course DDD2013J objectives
436,DDD2013J,Topic 436 in Course DDD2013J,Topic 436 in Course DDD2013J objectives
437,DDD2013J,Topic 437 in Course DDD2013J,Topic 437 in Course DDD2013J objectives
438,DDD2013J,Topic 438 in Course DDD2013J,Topic 438 in Course DDD2013J objectives
439,DDD2013J,Topic 439 in Course DDD2013J,Topic 439 in Course DDD2013J objectives
440,DDD2013J,Topic 440 in Course DDD2013J,Topic 440 in Course DDD2013J objectives
441,DDD2013J,Topic 441 in Course DDD2013J,Topic 441 in Course DDD2013J objectives
442,DDD2013J,Topic 442 in Course DDD2013J,Topic 442 in Course DDD2013J objectives
443,DDD2013J,Topic 443 in Course DDD2013J,Topic 443 in Course DDD2013J objectives
444,DDD2013J,Topic 444 in Course DDD2013J,Topic 444 in Course DDD2013J objectives
445,DDD2013J,Topic 445 in Course DDD2013J,Topic 445 in Course DDD2013J objectives
446,DDD2013J,Topic 446 in Course DDD2013J,Topic 446 in Course DDD2013J objectives
447,DDD2013J,Topic 447 in Course DDD2013J,Topic 447 in Course DDD2013J objectives
448,DDD2013J,Topic 448 in Course DDD2013J,Topic 448 in Course DDD2013J objectives
449,DDD2013J,Topic 449 in Course DDD2013J,Topic 449 in Course DDD2013J objectives
450,DDD2013J,Topic 450 in Course DDD2013J,Topic 450 in Course DDD2013J objectives
451,DDD2013J,Topic 451 in Course DDD2013J,Topic 451 in Course DDD2013J objectives
452,DDD2013J,Topic 452 in Course DDD2013J,Topic 452 in Course DDD2013J objectives
453,DDD2013J,Topic 453 in Course DDD2013J,Topic 453 in Course DDD2013J objectives
454,DDD2013J,Topic 454 in Course DDD2013J,Topic 454 in Course DDD2013J objectives
455,DDD2013J,Topic 455 in Course DDD2013J,Topic 455 in Course DDD2013J objectives
456,DDD2013J,Topic 456 in Course DDD2013J,Topic 456 in Course DDD2013J objectives
457,DDD2013J,Topic 457 in Course DDD2013J,Topic 457 in Course DDD2013J objectives
458,DDD2013J,Topic 458 in Course DDD2013J,Topic 458 in Course DDD2013J objectives
459,DDD2013J,Topic 459 in Course DDD2013J,Topic 459 in Course DDD2013J objectives
460,DDD2013J,Topic 460 in Course DDD2013J,Topic 460 in Course DDD2013J objectives
461,DDD2014B,Topic 461 in Course DDD2014B,Topic 461 in Course DDD2014B objectives
462,DDD2014B,Topic 462 in Course DDD2014B,Topic 462 in Course DDD2014B objectives
463,DDD2014B,Topic 463 in Course DDD2014B,Topic 463 in Course DDD2014B objectives
464,DDD2014B,Topic 464 in Course DDD2014B,Topic 464 in Course DDD2014B objectives
465,DDD2014B,Topic 465 in Course DDD2014B,Topic 465 in Course DDD2014B objectives
466,DDD2014B,Topic 466 in Course DDD2014B,Topic 466 in Course DDD2014B objectives
467,DDD2014B,Topic 467 in Course DDD2014B,Topic 467 in Course DDD2014B objectives
468,DDD2014B,Topic 468 in Course DDD2014B,Topic 468 in Course DDD2014B objectives
469,DDD2014B,Topic 469 in Course DDD2014B,Topic 469 in Course DDD2014B objectives
470,DDD2014B,Topic 470 in Course DDD2014B,Topic 470 in Course DDD2014B objectives
471,DDD2014B,Topic 471 in Course DDD2014B,Topic 471 in Course DDD2014B objectives
472,DDD2014B,Topic 472 in Course DDD2014B,Topic 472 in Course DDD2014B objectives
473,DDD2014B,Topic 473 in Course DDD2014B,Topic 473 in Course DDD2014B objectives
474,DDD2014B,Topic 474 in Course DDD2014B,Topic 474 in Course DDD2014B objectives
475,DDD2014B,Topic 475 in Course DDD2014B,Topic 475 in Course DDD2014B objectives
476,DDD2014B,Topic 476 in Course DDD2014B,Topic 476 in Course DDD2014B objectives
477,DDD2014B,Topic 477 in Course DDD2014B,Topic 477 in Course DDD2014B objectives
478,DDD2014B,Topic 478 in Course DDD2014B,Topic 478 in Course DDD2014B objectives
479,DDD2014B,Topic 479 in Course DDD2014B,Topic 479 in Course DDD2014B objectives
480,DDD2014B,Topic 480 in Course DDD2014B,Topic 480 in Course DDD2014B objectives
481,DDD2014B,Topic 481 in Course DDD2014B,Topic 481 in Course DDD2014B objectives
482,DDD2014B,Topic 482 in Course DDD2014B,Topic 482 in Course DDD2014B objectives
483,DDD2014B,Topic 483 in Course DDD2014B,Topic 483 in Course DDD2014B objectives
484,DDD2014B,Topic 484 in Course DDD2014B,Topic 484 in Course DDD2014B objectives
485,DDD2014B,Topic 485 in Course DDD2014B,Topic 485 in Course DDD2014B objectives
486,DDD2014B,Topic 486 in Course DDD2014B,Topic 486 in Course DDD2014B objectives
487,DDD2014B,Topic 487 in Course DDD2014B,Topic 487 in Course DDD2014B objectives
488,DDD2014B,Topic 488 in Course DDD2014B,Topic 488 in Course DDD2014B objectives
489,DDD2014B,Topic 489 in Course DDD2014B,Topic 489 in Course DDD2014B objectives
490,DDD2014B,Topic 490 in Course DDD2014B,Topic 490 in Course DDD2014B objectives
491,DDD2014B,Topic 491 in Course DDD2014B,Topic 491 in Course DDD2014B objectives
492,DDD2014B,Topic 492 in Course DDD2014B,Topic 492 in Course DDD2014B objectives
493,DDD2014B,Topic 493 in Course DDD2014B,Topic 493 in Course DDD2014B objectives
494,DDD2014B,Topic 494 in Course DDD2014B,Topic 494 in Course DDD2014B objectives
495,DDD2014B,Topic 495 in Course DDD2014B,Topic 495 in Course DDD2014B objectives
496,DDD2014B,Topic 496 in Course DDD2014B,Topic 496 in Course DDD2014B objectives
497,DDD2014B,Topic 497 in Course DDD2014B,Topic 497 in Course DDD2014B objectives
498,DDD2014B,Topic 498 in Course DDD2014B,Topic 498 in Course DDD2014B objectives
499,DDD2014B,Topic 499 in Course DDD2014B,Topic 499 in Course DDD2014B objectives
500,DDD2014B,Topic 500 in Course DDD2014B,Topic 500 in Course DDD2014B objectives
501,DDD2014B,Topic 501 in Course DDD2014B,Topic 501 in Course DDD2014B objectives
502,DDD2014B,Topic 502 in Course DDD2014B,Topic 502 in Course DDD2014B objectives
503,DDD2014B,Topic 503 in Course DDD2014B,Topic 503 in Course DDD2014B objectives
504,DDD2014B,Topic 504 in Course DDD2014B,Topic 504 in Course DDD2014B objectives
505,DDD2014B,Topic 505 in Course DDD2014B,Topic 505 in Course DDD2014B objectives
506,DDD2014B,Topic 506 in Course DDD2014B,Topic 506 in Course DDD2014B objectives
507,DDD2014B,Topic 507 in Course DDD2014B,Topic 507 in Course DDD2014B objectives
508,DDD2014B,Topic 508 in Course DDD2014B,Topic 508 in Course DDD2014B objectives
509,DDD2014B,Topic 509 in Course DDD2014B,Topic 509 in Course DDD2014B objectives
510,DDD2014B,Topic 510 in Course DDD2014B,Topic 510 in Course DDD2014B objectives
511,DDD2014B,Topic 511 in Course DDD2014B,Topic 511 in Course DDD2014B objectives
512,DDD2014B,Topic 512 in Course DDD2014B,Topic 512 in Course DDD2014B objectives
513,DDD2014B,Topic 513 in Course DDD2014B,Topic 513 in Course DDD2014B objectives
514,DDD2014B,Topic 514 in Course DDD2014B,Topic 514 in Course DDD2014B objectives
515,DDD2014B,Topic 515 in Course DDD2014B,Topic 515 in Course DDD2014B objectives
516,DDD2014B,Topic 516 in Course DDD2014B,Topic 516 in Course DDD2014B objectives
517,DDD2014B,Topic 517 in Course DDD2014B,Topic 517 in Course DDD2014B objectives
518,DDD2014B,Topic 518 in Course DDD2014B,Topic 518 in Course DDD2014B objectives
519,DDD2014B,Topic 519 in Course DDD2014B,Topic 519 in Course DDD2014B objectives
520,DDD2014B,Topic 520 in Course DDD2014B,Topic 520 in Course DDD2014B objectives
521,DDD2014B,Topic 521 in Course DDD2014B,Topic 521 in Course DDD2014B objectives
522,DDD2014B,Topic 522 in Course DDD2014B,Topic 522 in Course DDD2014B objectives
523,DDD2014B,Topic 523 in Course DDD2014B,Topic 523 in Course DDD2014B objectives
524,DDD2014B,Topic 524 in Course DDD2014B,Topic 524 in Course DDD2014B objectives
525,DDD2014B,Topic 525 in Course DDD2014B,Topic 525 in Course DDD2014B objectives
526,DDD2014J,Topic 526 in Course DDD2014J,Topic 526 in Course DDD2014J objectives
527,DDD2014J,Topic 527 in Course DDD2014J,Topic 527 in Course DDD2014J objectives
528,DDD2014J,Topic 528 in Course DDD2014J,Topic 528 in Course DDD2014J objectives
529,DDD2014J,Topic 529 in Course DDD2014J,Topic 529 in Course DDD2014J objectives
530,DDD2014J,Topic 530 in Course DDD2014J,Topic 530 in Course DDD2014J objectives
531,DDD2014J,Topic 531 in Course DDD2014J,Topic 531 in Course DDD2014J objectives
532,DDD2014J,Topic 532 in Course DDD2014J,Topic 532 in Course DDD2014J objectives
533,DDD2014J,Topic 533 in Course DDD2014J,Topic 533 in Course DDD2014J objectives
534,DDD2014J,Topic 534 in Course DDD2014J,Topic 534 in Course DDD2014J objectives
535,DDD2014J,Topic 535 in Course DDD2014J,Topic 535 in Course DDD2014J objectives
536,DDD2014J,Topic 536 in Course DDD2014J,Topic 536 in Course DDD2014J objectives
537,DDD2014J,Topic 537 in Course DDD2014J,Topic 537 in Course DDD2014J objectives
538,DDD2014J,Topic 538 in Course DDD2014J,Topic 538 in Course DDD2014J objectives
539,DDD2014J,Topic 539 in Course DDD2014J,Topic 539 in Course DDD2014J objectives
540,DDD2014J,Topic 540 in Course DDD2014J,Topic 540 in Course DDD2014J objectives
541,DDD2014J,Topic 541 in Course DDD2014J,Topic 541 in Course DDD2014J objectives
542,DDD2014J,Topic 542 in Course DDD2014J,Topic 542 in Course DDD2014J objectives
543,DDD2014J,Topic 543 in Course DDD2014J,Topic 543 in Course DDD2014J objectives
544,DDD2014J,Topic 544 in Course DDD2014J,Topic 544 in Course DDD2014J objectives
545,DDD2014J,Topic 545 in Course DDD2014J,Topic 545 in Course DDD2014J objectives
546,DDD2014J,Topic 546 in Course DDD2014J,Topic 546 in Course DDD2014J objectives
547,DDD2014J,Topic 547 in Course DDD2014J,Topic 547 in Course DDD2014J objectives
548,DDD2014J,Topic 548 in Course DDD2014J,Topic 548 in Course DDD2014J objectives
549,DDD2014J,Topic 549 in Course DDD2014J,Topic 549 in Course DDD2014J objectives
550,DDD2014J,Topic 550 in Course DDD2014J,Topic 550 in Course DDD2014J objectives
551,DDD2014J,Topic 551 in Course DDD2014J,Topic 551 in Course DDD2014J objectives
552,DDD2014J,Topic 552 in Course DDD2014J,Topic 552 in Course DDD2014J objectives
553,DDD2014J,Topic 553 in Course DDD2014J,Topic 553 in Course DDD2014J objectives
554,DDD2014J,Topic 554 in Course DDD2014J,Topic 554 in Course DDD2014J objectives
555,DDD2014J,Topic 555 in Course DDD2014J,Topic 555 in Course DDD2014J objectives
556,DDD2014J,Topic 556 in Course DDD2014J,Topic 556 in Course DDD2014J objectives
557,DDD2014J,Topic 557 in Course DDD2014J,Topic 557 in Course DDD2014J objectives
558,DDD2014J,Topic 558 in Course DDD2014J,Topic 558 in Course DDD2014J objectives
559,DDD2014J,Topic 559 in Course DDD2014J,Topic 559 in Course DDD2014J objectives
560,DDD2014J,Topic 560 in Course DDD2014J,Topic 560 in Course DDD2014J objectives
561,DDD2014J,Topic 561 in Course DDD2014J,Topic 561 in Course DDD2014J objectives
562,DDD2014J,Topic 562 in Course DDD2014J,Topic 562 in Course DDD2014J objectives
563,DDD2014J,Topic 563 in Course DDD2014J,Topic 563 in Course DDD2014J objectives
564,DDD2014J,Topic 564 in Course DDD2014J,Topic 564 in Course DDD2014J objectives
565,DDD2014J,Topic 565 in Course DDD2014J,Topic 565 in Course DDD2014J objectives
566,DDD2014J,Topic 566 in Course DDD2014J,Topic 566 in Course DDD2014J objectives
567,DDD2014J,Topic 567 in Course DDD2014J,Topic 567 in Course DDD2014J objectives
568,DDD2014J,Topic 568 in Course DDD2014J,Topic 568 in Course DDD2014J objectives
569,DDD2014J,Topic 569 in Course DDD2014J,Topic 569 in Course DDD2014J objectives
570,DDD2014J,Topic 570 in Course DDD2014J,Topic 570 in Course DDD2014J objectives
571,DDD2014J,Topic 571 in Course DDD2014J,Topic 571 in Course DDD2014J objectives
572,DDD2014J,Topic 572 in Course DDD2014J,Topic 572 in Course DDD2014J objectives
573,DDD2014J,Topic 573 in Course DDD2014J,Topic 573 in Course DDD2014J objectives
574,DDD2014J,Topic 574 in Course DDD2014J,Topic 574 in Course DDD2014J objectives
575,DDD2014J,Topic 575 in Course DDD2014J,Topic 575 in Course DDD2014J objectives
576,DDD2014J,Topic 576 in Course DDD2014J,Topic 576 in Course DDD2014J objectives
577,DDD2014J,Topic 577 in Course DDD2014J,Topic 577 in Course DDD2014J objectives
578,DDD2014J,Topic 578 in Course DDD2014J,Topic 578 in Course DDD2014J objectives
579,DDD2014J,Topic 579 in Course DDD2014J,Topic 579 in Course DDD2014J objectives
580,DDD2014J,Topic 580 in Course DDD2014J,Topic 580 in Course DDD2014J objectives
581,DDD2014J,Topic 581 in Course DDD2014J,Topic 581 in Course DDD2014J objectives
582,DDD2014J,Topic 582 in Course DDD2014J,Topic 582 in Course DDD2014J objectives
583,DDD2014J,Topic 583 in Course DDD2014J,Topic 583 in Course DDD2014J objectives
584,DDD2014J,Topic 584 in Course DDD2014J,Topic 584 in Course DDD2014J objectives
585,DDD2014J,Topic 585 in Course DDD2014J,Topic 585 in Course DDD2014J objectives
586,DDD2014J,Topic 586 in Course DDD2014J,Topic 586 in Course DDD2014J objectives
587,EEE2013J,Topic 587 in Course EEE2013J,Topic 587 in Course EEE2013J objectives
588,EEE2013J,Topic 588 in Course EEE2013J,Topic 588 in Course EEE2013J objectives
589,EEE2013J,Topic 589 in Course EEE2013J,Topic 589 in Course EEE2013J objectives
590,EEE2013J,Topic 590 in Course EEE2013J,Topic 590 in Course EEE2013J objectives
591,EEE2013J,Topic 591 in Course EEE2013J,Topic 591 in Course EEE2013J objectives
592,EEE2013J,Topic 592 in Course EEE2013J,Topic 592 in Course EEE2013J objectives
593,EEE2013J,Topic 593 in Course EEE2013J,Topic 593 in Course EEE2013J objectives
594,EEE2013J,Topic 594 in Course EEE2013J,Topic 594 in Course EEE2013J objectives
595,EEE2013J,Topic 595 in Course EEE2013J,Topic 595 in Course EEE2013J objectives
596,EEE2013J,Topic 596 in Course EEE2013J,Topic 596 in Course EEE2013J objectives
597,EEE2013J,Topic 597 in Course EEE2013J,Topic 597 in Course EEE2013J objectives
598,EEE2013J,Topic 598 in Course EEE2013J,Topic 598 in Course EEE2013J objectives
599,EEE2013J,Topic 599 in Course EEE2013J,Topic 599 in Course EEE2013J objectives
600,EEE2013J,Topic 600 in Course EEE2013J,Topic 600 in Course EEE2013J objectives
601,EEE2014B,Topic 601 in Course EEE2014B,Topic 601 in Course EEE2014B objectives
602,EEE2014B,Topic 602 in Course EEE2014B,Topic 602 in Course EEE2014B objectives
603,EEE2014B,Topic 603 in Course EEE2014B,Topic 603 in Course EEE2014B objectives
604,EEE2014B,Topic 604 in Course EEE2014B,Topic 604 in Course EEE2014B objectives
605,EEE2014B,Topic 605 in Course EEE2014B,Topic 605 in Course EEE2014B objectives
606,EEE2014B,Topic 606 in Course EEE2014B,Topic 606 in Course EEE2014B objectives
607,EEE2014B,Topic 607 in Course EEE2014B,Topic 607 in Course EEE2014B objectives
608,EEE2014B,Topic 608 in Course EEE2014B,Topic 608 in Course EEE2014B objectives
609,EEE2014B,Topic 609 in Course EEE2014B,Topic 609 in Course EEE2014B objectives
610,EEE2014B,Topic 610 in Course EEE2014B,Topic 610 in Course EEE2014B objectives
611,EEE2014B,Topic 611 in Course EEE2014B,Topic 611 in Course EEE2014B objectives
612,EEE2014B,Topic 612 in Course EEE2014B,Topic 612 in Course EEE2014B objectives
613,EEE2014B,Topic 613 in Course EEE2014B,Topic 613 in Course EEE2014B objectives
614,EEE2014J,Topic 614 in Course EEE2014J,Topic 614 in Course EEE2014J objectives
615,EEE2014J,Topic 615 in Course EEE2014J,Topic 615 in Course EEE2014J objectives
616,EEE2014J,Topic 616 in Course EEE2014J,Topic 616 in Course EEE2014J objectives
617,EEE2014J,Topic 617 in Course EEE2014J,Topic 617 in Course EEE2014J objectives
618,EEE2014J,Topic 618 in Course EEE2014J,Topic 618 in Course EEE2014J objectives
619,EEE2014J,Topic 619 in Course EEE2014J,Topic 619 in Course EEE2014J objectives
620,EEE2014J,Topic 620 in Course EEE2014J,Topic 620 in Course EEE2014J objectives
621,EEE2014J,Topic 621 in Course EEE2014J,Topic 621 in Course EEE2014J objectives
622,EEE2014J,Topic 622 in Course EEE2014J,Topic 622 in Course EEE2014J objectives
623,EEE2014J,Topic 623 in Course EEE2014J,Topic 623 in Course EEE2014J objectives
624,EEE2014J,Topic 624 in Course EEE2014J,Topic 624 in Course EEE2014J objectives
625,EEE2014J,Topic 625 in Course EEE2014J,Topic 625 in Course EEE2014J objectives
626,EEE2014J,Topic 626 in Course EEE2014J,Topic 626 in Course EEE2014J objectives
627,EEE2014J,Topic 627 in Course EEE2014J,Topic 627 in Course EEE2014J objectives
628,EEE2014J,Topic 628 in Course EEE2014J,Topic 628 in Course EEE2014J objectives
629,FFF2013B,Topic 629 in Course FFF2013B,Topic 629 in Course FFF2013B objectives
630,FFF2013B,Topic 630 in Course FFF2013B,Topic 630 in Course FFF2013B objectives
631,FFF2013B,Topic 631 in Course FFF2013B,Topic 631 in Course FFF2013B objectives
632,FFF2013B,Topic 632 in Course FFF2013B,Topic 632 in Course FFF2013B objectives
633,FFF2013B,Topic 633 in Course FFF2013B,Topic 633 in Course FFF2013B objectives
634,FFF2013B,Topic 634 in Course FFF2013B,Topic 634 in Course FFF2013B objectives
635,FFF2013B,Topic 635 in Course FFF2013B,Topic 635 in Course FFF2013B objectives
636,FFF2013B,Topic 636 in Course FFF2013B,Topic 636 in Course FFF2013B objectives
637,FFF2013B,Topic 637 in Course FFF2013B,Topic 637 in Course FFF2013B objectives
638,FFF2013B,Topic 638 in Course FFF2013B,Topic 638 in Course FFF2013B objectives
639,FFF2013B,Topic 639 in Course FFF2013B,Topic 639 in Course FFF2013B objectives
640,FFF2013B,Topic 640 in Course FFF2013B,Topic 640 in Course FFF2013B objectives
641,FFF2013B,Topic 641 in Course FFF2013B,Topic 641 in Course FFF2013B objectives
642,FFF2013B,Topic 642 in Course FFF2013B,Topic 642 in Course FFF2013B objectives
643,FFF2013B,Topic 643 in Course FFF2013B,Topic 643 in Course FFF2013B objectives
644,FFF2013B,Topic 644 in Course FFF2013B,Topic 644 in Course FFF2013B objectives
645,FFF2013B,Topic 645 in Course FFF2013B,Topic 645 in Course FFF2013B objectives
646,FFF2013B,Topic 646 in Course FFF2013B,Topic 646 in Course FFF2013B objectives
647,FFF2013B,Topic 647 in Course FFF2013B,Topic 647 in Course FFF2013B objectives
648,FFF2013B,Topic 648 in Course FFF2013B,Topic 648 in Course FFF2013B objectives
649,FFF2013B,Topic 649 in Course FFF2013B,Topic 649 in Course FFF2013B objectives
650,FFF2013B,Topic 650 in Course FFF2013B,Topic 650 in Course FFF2013B objectives
651,FFF2013B,Topic 651 in Course FFF2013B,Topic 651 in Course FFF2013B objectives
652,FFF2013B,Topic 652 in Course FFF2013B,Topic 652 in Course FFF2013B objectives
653,FFF2013B,Topic 653 in Course FFF2013B,Topic 653 in Course FFF2013B objectives
654,FFF2013B,Topic 654 in Course FFF2013B,Topic 654 in Course FFF2013B objectives
655,FFF2013B,Topic 655 in Course FFF2013B,Topic 655 in Course FFF2013B objectives
656,FFF2013B,Topic 656 in Course FFF2013B,Topic 656 in Course FFF2013B objectives
657,FFF2013B,Topic 657 in Course FFF2013B,Topic 657 in Course FFF2013B objectives
658,FFF2013B,Topic 658 in Course FFF2013B,Topic 658 in Course FFF2013B objectives
659,FFF2013B,Topic 659 in Course FFF2013B,Topic 659 in Course FFF2013B objectives
660,FFF2013B,Topic 660 in Course FFF2013B,Topic 660 in Course FFF2013B objectives
661,FFF2013B,Topic 661 in Course FFF2013B,Topic 661 in Course FFF2013B objectives
662,FFF2013B,Topic 662 in Course FFF2013B,Topic 662 in Course FFF2013B objectives
663,FFF2013B,Topic 663 in Course FFF2013B,Topic 663 in Course FFF2013B objectives
664,FFF2013B,Topic 664 in Course FFF2013B,Topic 664 in Course FFF2013B objectives
665,FFF2013B,Topic 665 in Course FFF2013B,Topic 665 in Course FFF2013B objectives
666,FFF2013B,Topic 666 in Course FFF2013B,Topic 666 in Course FFF2013B objectives
667,FFF2013B,Topic 667 in Course FFF2013B,Topic 667 in Course FFF2013B objectives
668,FFF2013B,Topic 668 in Course FFF2013B,Topic 668 in Course FFF2013B objectives
669,FFF2013B,Topic 669 in Course FFF2013B,Topic 669 in Course FFF2013B objectives
670,FFF2013B,Topic 670 in Course FFF2013B,Topic 670 in Course FFF2013B objectives
671,FFF2013B,Topic 671 in Course FFF2013B,Topic 671 in Course FFF2013B objectives
672,FFF2013B,Topic 672 in Course FFF2013B,Topic 672 in Course FFF2013B objectives
673,FFF2013B,Topic 673 in Course FFF2013B,Topic 673 in Course FFF2013B objectives
674,FFF2013B,Topic 674 in Course FFF2013B,Topic 674 in Course FFF2013B objectives
675,FFF2013B,Topic 675 in Course FFF2013B,Topic 675 in Course FFF2013B objectives
676,FFF2013B,Topic 676 in Course FFF2013B,Topic 676 in Course FFF2013B objectives
677,FFF2013B,Topic 677 in Course FFF2013B,Topic 677 in Course FFF2013B objectives
678,FFF2013B,Topic 678 in Course FFF2013B,Topic 678 in Course FFF2013B objectives
679,FFF2013B,Topic 679 in Course FFF2013B,Topic 679 in Course FFF2013B objectives
680,FFF2013B,Topic 680 in Course FFF2013B,Topic 680 in Course FFF2013B objectives
681,FFF2013B,Topic 681 in Course FFF2013B,Topic 681 in Course FFF2013B objectives
682,FFF2013B,Topic 682 in Course FFF2013B,Topic 682 in Course FFF2013B objectives
683,FFF2013B,Topic 683 in Course FFF2013B,Topic 683 in Course FFF2013B objectives
684,FFF2013B,Topic 684 in Course FFF2013B,Topic 684 in Course FFF2013B objectives
685,FFF2013B,Topic 685 in Course FFF2013B,Topic 685 in Course FFF2013B objectives
686,FFF2013B,Topic 686 in Course FFF2013B,Topic 686 in Course FFF2013B objectives
687,FFF2013B,Topic 687 in Course FFF2013B,Topic 687 in Course FFF2013B objectives
688,FFF2013B,Topic 688 in Course FFF2013B,Topic 688 in Course FFF2013B objectives
689,FFF2013B,Topic 689 in Course FFF2013B,Topic 689 in Course FFF2013B objectives
690,FFF2013B,Topic 690 in Course FFF2013B,Topic 690 in Course FFF2013B objectives
691,FFF2013B,Topic 691 in Course FFF2013B,Topic 691 in Course FFF2013B objectives
692,FFF2013B,Topic 692 in Course FFF2013B,Topic 692 in Course FFF2013B objectives
693,FFF2013B,Topic 693 in Course FFF2013B,Topic 693 in Course FFF2013B objectives
694,FFF2013B,Topic 694 in Course FFF2013B,Topic 694 in Course FFF2013B objectives
695,FFF2013B,Topic 695 in Course FFF2013B,Topic 695 in Course FFF2013B objectives
696,FFF2013B,Topic 696 in Course FFF2013B,Topic 696 in Course FFF2013B objectives
697,FFF2013B,Topic 697 in Course FFF2013B,Topic 697 in Course FFF2013B objectives
698,FFF2013B,Topic 698 in Course FFF2013B,Topic 698 in Course FFF2013B objectives
699,FFF2013B,Topic 699 in Course FFF2013B,Topic 699 in Course FFF2013B objectives
700,FFF2013B,Topic 700 in Course FFF2013B,Topic 700 in Course FFF2013B objectives
701,FFF2013B,Topic 701 in Course FFF2013B,Topic 701 in Course FFF2013B objectives
702,FFF2013J,Topic 702 in Course FFF2013J,Topic 702 in Course FFF2013J objectives
703,FFF2013J,Topic 703 in Course FFF2013J,Topic 703 in Course FFF2013J objectives
704,FFF2013J,Topic 704 in Course FFF2013J,Topic 704 in Course FFF2013J objectives
705,FFF2013J,Topic 705 in Course FFF2013J,Topic 705 in Course FFF2013J objectives
706,FFF2013J,Topic 706 in Course FFF2013J,Topic 706 in Course FFF2013J objectives
707,FFF2013J,Topic 707 in Course FFF2013J,Topic 707 in Course FFF2013J objectives
708,FFF2013J,Topic 708 in Course FFF2013J,Topic 708 in Course FFF2013J objectives
709,FFF2013J,Topic 709 in Course FFF2013J,Topic 709 in Course FFF2013J objectives
710,FFF2013J,Topic 710 in Course FFF2013J,Topic 710 in Course FFF2013J objectives
711,FFF2013J,Topic 711 in Course FFF2013J,Topic 711 in Course FFF2013J objectives
712,FFF2013J,Topic 712 in Course FFF2013J,Topic 712 in Course FFF2013J objectives
713,FFF2013J,Topic 713 in Course FFF2013J,Topic 713 in Course FFF2013J objectives
714,FFF2013J,Topic 714 in Course FFF2013J,Topic 714 in Course FFF2013J objectives
715,FFF2013J,Topic 715 in Course FFF2013J,Topic 715 in Course FFF2013J objectives
716,FFF2013J,Topic 716 in Course FFF2013J,Topic 716 in Course FFF2013J objectives
717,FFF2013J,Topic 717 in Course FFF2013J,Topic 717 in Course FFF2013J objectives
718,FFF2013J,Topic 718 in Course FFF2013J,Topic 718 in Course FFF2013J objectives
719,FFF2013J,Topic 719 in Course FFF2013J,Topic 719 in Course FFF2013J objectives
720,FFF2013J,Topic 720 in Course FFF2013J,Topic 720 in Course FFF2013J objectives
721,FFF2013J,Topic 721 in Course FFF2013J,Topic 721 in Course FFF2013J objectives
722,FFF2013J,Topic 722 in Course FFF2013J,Topic 722 in Course FFF2013J objectives
723,FFF2013J,Topic 723 in Course FFF2013J,Topic 723 in Course FFF2013J objectives
724,FFF2013J,Topic 724 in Course FFF2013J,Topic 724 in Course FFF2013J objectives
725,FFF2013J,Topic 725 in Course FFF2013J,Topic 725 in Course FFF2013J objectives
726,FFF2013J,Topic 726 in Course FFF2013J,Topic 726 in Course FFF2013J objectives
727,FFF2013J,Topic 727 in Course FFF2013J,Topic 727 in Course FFF2013J objectives
728,FFF2013J,Topic 728 in Course FFF2013J,Topic 728 in Course FFF2013J objectives
729,FFF2013J,Topic 729 in Course FFF2013J,Topic 729 in Course FFF2013J objectives
730,FFF2013J,Topic 730 in Course FFF2013J,Topic 730 in Course FFF2013J objectives
731,FFF2013J,Topic 731 in Course FFF2013J,Topic 731 in Course FFF2013J objectives
732,FFF2013J,Topic 732 in Course FFF2013J,Topic 732 in Course FFF2013J objectives
733,FFF2013J,Topic 733 in Course FFF2013J,Topic 733 in Course FFF2013J objectives
734,FFF2013J,Topic 734 in Course FFF2013J,Topic 734 in Course FFF2013J objectives
735,FFF2013J,Topic 735 in Course FFF2013J,Topic 735 in Course FFF2013J objectives
736,FFF2013J,Topic 736 in Course FFF2013J,Topic 736 in Course FFF2013J objectives
737,FFF2013J,Topic 737 in Course FFF2013J,Topic 737 in Course FFF2013J objectives
738,FFF2013J,Topic 738 in Course FFF2013J,Topic 738 in Course FFF2013J objectives
739,FFF2013J,Topic 739 in Course FFF2013J,Topic 739 in Course FFF2013J objectives
740,FFF2013J,Topic 740 in Course FFF2013J,Topic 740 in Course FFF2013J objectives
741,FFF2013J,Topic 741 in Course FFF2013J,Topic 741 in Course FFF2013J objectives
742,FFF2013J,Topic 742 in Course FFF2013J,Topic 742 in Course FFF2013J objectives
743,FFF2013J,Topic 743 in Course FFF2013J,Topic 743 in Course FFF2013J objectives
744,FFF2013J,Topic 744 in Course FFF2013J,Topic 744 in Course FFF2013J objectives
745,FFF2013J,Topic 745 in Course FFF2013J,Topic 745 in Course FFF2013J objectives
746,FFF2013J,Topic 746 in Course FFF2013J,Topic 746 in Course FFF2013J objectives
747,FFF2013J,Topic 747 in Course FFF2013J,Topic 747 in Course FFF2013J objectives
748,FFF2013J,Topic 748 in Course FFF2013J,Topic 748 in Course FFF2013J objectives
749,FFF2013J,Topic 749 in Course FFF2013J,Topic 749 in Course FFF2013J objectives
750,FFF2013J,Topic 750 in Course FFF2013J,Topic 750 in Course FFF2013J objectives
751,FFF2013J,Topic 751 in Course FFF2013J,Topic 751 in Course FFF2013J objectives
752,FFF2013J,Topic 752 in Course FFF2013J,Topic 752 in Course FFF2013J objectives
753,FFF2013J,Topic 753 in Course FFF2013J,Topic 753 in Course FFF2013J objectives
754,FFF2013J,Topic 754 in Course FFF2013J,Topic 754 in Course FFF2013J objectives
755,FFF2013J,Topic 755 in Course FFF2013J,Topic 755 in Course FFF2013J objectives
756,FFF2013J,Topic 756 in Course FFF2013J,Topic 756 in Course FFF2013J objectives
757,FFF2013J,Topic 757 in Course FFF2013J,Topic 757 in Course FFF2013J objectives
758,FFF2013J,Topic 758 in Course FFF2013J,Topic 758 in Course FFF2013J objectives
759,FFF2013J,Topic 759 in Course FFF2013J,Topic 759 in Course FFF2013J objectives
760,FFF2013J,Topic 760 in Course FFF2013J,Topic 760 in Course FFF2013J objectives
761,FFF2013J,Topic 761 in Course FFF2013J,Topic 761 in Course FFF2013J objectives
762,FFF2013J,Topic 762 in Course FFF2013J,Topic 762 in Course FFF2013J objectives
763,FFF2013J,Topic 763 in Course FFF2013J,Topic 763 in Course FFF2013J objectives
764,FFF2013J,Topic 764 in Course FFF2013J,Topic 764 in Course FFF2013J objectives
765,FFF2013J,Topic 765 in Course FFF2013J,Topic 765 in Course FFF2013J objectives
766,FFF2013J,Topic 766 in Course FFF2013J,Topic 766 in Course FFF2013J objectives
767,FFF2013J,Topic 767 in Course FFF2013J,Topic 767 in Course FFF2013J objectives
768,FFF2013J,Topic 768 in Course FFF2013J,Topic 768 in Course FFF2013J objectives
769,FFF2013J,Topic 769 in Course FFF2013J,Topic 769 in Course FFF2013J objectives
770,FFF2013J,Topic 770 in Course FFF2013J,Topic 770 in Course FFF2013J objectives
771,FFF2013J,Topic 771 in Course FFF2013J,Topic 771 in Course FFF2013J objectives
772,FFF2013J,Topic 772 in Course FFF2013J,Topic 772 in Course FFF2013J objectives
773,FFF2013J,Topic 773 in Course FFF2013J,Topic 773 in Course FFF2013J objectives
774,FFF2013J,Topic 774 in Course FFF2013J,Topic 774 in Course FFF2013J objectives
775,FFF2013J,Topic 775 in Course FFF2013J,Topic 775 in Course FFF2013J objectives
776,FFF2013J,Topic 776 in Course FFF2013J,Topic 776 in Course FFF2013J objectives
777,FFF2013J,Topic 777 in Course FFF2013J,Topic 777 in Course FFF2013J objectives
778,FFF2014B,Topic 778 in Course FFF2014B,Topic 778 in Course FFF2014B objectives
779,FFF2014B,Topic 779 in Course FFF2014B,Topic 779 in Course FFF2014B objectives
780,FFF2014B,Topic 780 in Course FFF2014B,Topic 780 in Course FFF2014B objectives
781,FFF2014B,Topic 781 in Course FFF2014B,Topic 781 in Course FFF2014B objectives
782,FFF2014B,Topic 782 in Course FFF2014B,Topic 782 in Course FFF2014B objectives
783,FFF2014B,Topic 783 in Course FFF2014B,Topic 783 in Course FFF2014B objectives
784,FFF2014B,Topic 784 in Course FFF2014B,Topic 784 in Course FFF2014B objectives
785,FFF2014B,Topic 785 in Course FFF2014B,Topic 785 in Course FFF2014B objectives
786,FFF2014B,Topic 786 in Course FFF2014B,Topic 786 in Course FFF2014B objectives
787,FFF2014B,Topic 787 in Course FFF2014B,Topic 787 in Course FFF2014B objectives
788,FFF2014B,Topic 788 in Course FFF2014B,Topic 788 in Course FFF2014B objectives
789,FFF2014B,Topic 789 in Course FFF2014B,Topic 789 in Course FFF2014B objectives
790,FFF2014B,Topic 790 in Course FFF2014B,Topic 790 in Course FFF2014B objectives
791,FFF2014B,Topic 791 in Course FFF2014B,Topic 791 in Course FFF2014B objectives
792,FFF2014B,Topic 792 in Course FFF2014B,Topic 792 in Course FFF2014B objectives
793,FFF2014B,Topic 793 in Course FFF2014B,Topic 793 in Course FFF2014B objectives
794,FFF2014B,Topic 794 in Course FFF2014B,Topic 794 in Course FFF2014B objectives
795,FFF2014B,Topic 795 in Course FFF2014B,Topic 795 in Course FFF2014B objectives
796,FFF2014B,Topic 796 in Course FFF2014B,Topic 796 in Course FFF2014B objectives
797,FFF2014B,Topic 797 in Course FFF2014B,Topic 797 in Course FFF2014B objectives
798,FFF2014B,Topic 798 in Course FFF2014B,Topic 798 in Course FFF2014B objectives
799,FFF2014B,Topic 799 in Course FFF2014B,Topic 799 in Course FFF2014B objectives
800,FFF2014B,Topic 800 in Course FFF2014B,Topic 800 in Course FFF2014B objectives
801,FFF2014B,Topic 801 in Course FFF2014B,Topic 801 in Course FFF2014B objectives
802,FFF2014B,Topic 802 in Course FFF2014B,Topic 802 in Course FFF2014B objectives
803,FFF2014B,Topic 803 in Course FFF2014B,Topic 803 in Course FFF2014B objectives
804,FFF2014B,Topic 804 in Course FFF2014B,Topic 804 in Course FFF2014B objectives
805,FFF2014B,Topic 805 in Course FFF2014B,Topic 805 in Course FFF2014B objectives
806,FFF2014B,Topic 806 in Course FFF2014B,Topic 806 in Course FFF2014B objectives
807,FFF2014B,Topic 807 in Course FFF2014B,Topic 807 in Course FFF2014B objectives
808,FFF2014B,Topic 808 in Course FFF2014B,Topic 808 in Course FFF2014B objectives
809,FFF2014B,Topic 809 in Course FFF2014B,Topic 809 in Course FFF2014B objectives
810,FFF2014B,Topic 810 in Course FFF2014B,Topic 810 in Course FFF2014B objectives
811,FFF2014B,Topic 811 in Course FFF2014B,Topic 811 in Course FFF2014B objectives
812,FFF2014B,Topic 812 in Course FFF2014B,Topic 812 in Course FFF2014B objectives
813,FFF2014B,Topic 813 in Course FFF2014B,Topic 813 in Course FFF2014B objectives
814,FFF2014B,Topic 814 in Course FFF2014B,Topic 814 in Course FFF2014B objectives
815,FFF2014B,Topic 815 in Course FFF2014B,Topic 815 in Course FFF2014B objectives
816,FFF2014B,Topic 816 in Course FFF2014B,Topic 816 in Course FFF2014B objectives
817,FFF2014B,Topic 817 in Course FFF2014B,Topic 817 in Course FFF2014B objectives
818,FFF2014B,Topic 818 in Course FFF2014B,Topic 818 in Course FFF2014B objectives
819,FFF2014B,Topic 819 in Course FFF2014B,Topic 819 in Course FFF2014B objectives
820,FFF2014B,Topic 820 in Course FFF2014B,Topic 820 in Course FFF2014B objectives
821,FFF2014B,Topic 821 in Course FFF2014B,Topic 821 in Course FFF2014B objectives
822,FFF2014B,Topic 822 in Course FFF2014B,Topic 822 in Course FFF2014B objectives
823,FFF2014B,Topic 823 in Course FFF2014B,Topic 823 in Course FFF2014B objectives
824,FFF2014B,Topic 824 in Course FFF2014B,Topic 824 in Course FFF2014B objectives
825,FFF2014B,Topic 825 in Course FFF2014B,Topic 825 in Course FFF2014B objectives
826,FFF2014B,Topic 826 in Course FFF2014B,Topic 826 in Course FFF2014B objectives
827,FFF2014B,Topic 827 in Course FFF2014B,Topic 827 in Course FFF2014B objectives
828,FFF2014B,Topic 828 in Course FFF2014B,Topic 828 in Course FFF2014B objectives
829,FFF2014B,Topic 829 in Course FFF2014B,Topic 829 in Course FFF2014B objectives
830,FFF2014B,Topic 830 in Course FFF2014B,Topic 830 in Course FFF2014B objectives
831,FFF2014B,Topic 831 in Course FFF2014B,Topic 831 in Course FFF2014B objectives
832,FFF2014B,Topic 832 in Course FFF2014B,Topic 832 in Course FFF2014B objectives
833,FFF2014B,Topic 833 in Course FFF2014B,Topic 833 in Course FFF2014B objectives
834,FFF2014B,Topic 834 in Course FFF2014B,Topic 834 in Course FFF2014B objectives
835,FFF2014B,Topic 835 in Course FFF2014B,Topic 835 in Course FFF2014B objectives
836,FFF2014B,Topic 836 in Course FFF2014B,Topic 836 in Course FFF2014B objectives
837,FFF2014B,Topic 837 in Course FFF2014B,Topic 837 in Course FFF2014B objectives
838,FFF2014B,Topic 838 in Course FFF2014B,Topic 838 in Course FFF2014B objectives
839,FFF2014B,Topic 839 in Course FFF2014B,Topic 839 in Course FFF2014B objectives
840,FFF2014B,Topic 840 in Course FFF2014B,Topic 840 in Course FFF2014B objectives
841,FFF2014B,Topic 841 in Course FFF2014B,Topic 841 in Course FFF2014B objectives
842,FFF2014B,Topic 842 in Course FFF2014B,Topic 842 in Course FFF2014B objectives
843,FFF2014B,Topic 843 in Course FFF2014B,Topic 843 in Course FFF2014B objectives
844,FFF2014B,Topic 844 in Course FFF2014B,Topic 844 in Course FFF2014B objectives
845,FFF2014B,Topic 845 in Course FFF2014B,Topic 845 in Course FFF2014B objectives
846,FFF2014B,Topic 846 in Course FFF2014B,Topic 846 in Course FFF2014B objectives
847,FFF2014J,Topic 847 in Course FFF2014J,Topic 847 in Course FFF2014J objectives
848,FFF2014J,Topic 848 in Course FFF2014J,Topic 848 in Course FFF2014J objectives
849,FFF2014J,Topic 849 in Course FFF2014J,Topic 849 in Course FFF2014J objectives
850,FFF2014J,Topic 850 in Course FFF2014J,Topic 850 in Course FFF2014J objectives
851,FFF2014J,Topic 851 in Course FFF2014J,Topic 851 in Course FFF2014J objectives
852,FFF2014J,Topic 852 in Course FFF2014J,Topic 852 in Course FFF2014J objectives
853,FFF2014J,Topic 853 in Course FFF2014J,Topic 853 in Course FFF2014J objectives
854,FFF2014J,Topic 854 in Course FFF2014J,Topic 854 in Course FFF2014J objectives
855,FFF2014J,Topic 855 in Course FFF2014J,Topic 855 in Course FFF2014J objectives
856,FFF2014J,Topic 856 in Course FFF2014J,Topic 856 in Course FFF2014J objectives
857,FFF2014J,Topic 857 in Course FFF2014J,Topic 857 in Course FFF2014J objectives
858,FFF2014J,Topic 858 in Course FFF2014J,Topic 858 in Course FFF2014J objectives
859,FFF2014J,Topic 859 in Course FFF2014J,Topic 859 in Course FFF2014J objectives
860,FFF2014J,Topic 860 in Course FFF2014J,Topic 860 in Course FFF2014J objectives
861,FFF2014J,Topic 861 in Course FFF2014J,Topic 861 in Course FFF2014J objectives
862,FFF2014J,Topic 862 in Course FFF2014J,Topic 862 in Course FFF2014J objectives
863,FFF2014J,Topic 863 in Course FFF2014J,Topic 863 in Course FFF2014J objectives
864,FFF2014J,Topic 864 in Course FFF2014J,Topic 864 in Course FFF2014J objectives
865,FFF2014J,Topic 865 in Course FFF2014J,Topic 865 in Course FFF2014J objectives
866,FFF2014J,Topic 866 in Course FFF2014J,Topic 866 in Course FFF2014J objectives
867,FFF2014J,Topic 867 in Course FFF2014J,Topic 867 in Course FFF2014J objectives
868,FFF2014J,Topic 868 in Course FFF2014J,Topic 868 in Course FFF2014J objectives
869,FFF2014J,Topic 869 in Course FFF2014J,Topic 869 in Course FFF2014J objectives
870,FFF2014J,Topic 870 in Course FFF2014J,Topic 870 in Course FFF2014J objectives
871,FFF2014J,Topic 871 in Course FFF2014J,Topic 871 in Course FFF2014J objectives
872,FFF2014J,Topic 872 in Course FFF2014J,Topic 872 in Course FFF2014J objectives
873,FFF2014J,Topic 873 in Course FFF2014J,Topic 873 in Course FFF2014J objectives
874,FFF2014J,Topic 874 in Course FFF2014J,Topic 874 in Course FFF2014J objectives
875,FFF2014J,Topic 875 in Course FFF2014J,Topic 875 in Course FFF2014J objectives
876,FFF2014J,Topic 876 in Course FFF2014J,Topic 876 in Course FFF2014J objectives
877,FFF2014J,Topic 877 in Course FFF2014J,Topic 877 in Course FFF2014J objectives
878,FFF2014J,Topic 878 in Course FFF2014J,Topic 878 in Course FFF2014J objectives
879,FFF2014J,Topic 879 in Course FFF2014J,Topic 879 in Course FFF2014J objectives
880,FFF2014J,Topic 880 in Course FFF2014J,Topic 880 in Course FFF2014J objectives
881,FFF2014J,Topic 881 in Course FFF2014J,Topic 881 in Course FFF2014J objectives
882,FFF2014J,Topic 882 in Course FFF2014J,Topic 882 in Course FFF2014J objectives
883,FFF2014J,Topic 883 in Course FFF2014J,Topic 883 in Course FFF2014J objectives
884,FFF2014J,Topic 884 in Course FFF2014J,Topic 884 in Course FFF2014J objectives
885,FFF2014J,Topic 885 in Course FFF2014J,Topic 885 in Course FFF2014J objectives
886,FFF2014J,Topic 886 in Course FFF2014J,Topic 886 in Course FFF2014J objectives
887,FFF2014J,Topic 887 in Course FFF2014J,Topic 887 in Course FFF2014J objectives
888,FFF2014J,Topic 888 in Course FFF2014J,Topic 888 in Course FFF2014J objectives
889,FFF2014J,Topic 889 in Course FFF2014J,Topic 889 in Course FFF2014J objectives
890,FFF2014J,Topic 890 in Course FFF2014J,Topic 890 in Course FFF2014J objectives
891,FFF2014J,Topic 891 in Course FFF2014J,Topic 891 in Course FFF2014J objectives
892,FFF2014J,Topic 892 in Course FFF2014J,Topic 892 in Course FFF2014J objectives
893,FFF2014J,Topic 893 in Course FFF2014J,Topic 893 in Course FFF2014J objectives
894,FFF2014J,Topic 894 in Course FFF2014J,Topic 894 in Course FFF2014J objectives
895,FFF2014J,Topic 895 in Course FFF2014J,Topic 895 in Course FFF2014J objectives
896,FFF2014J,Topic 896 in Course FFF2014J,Topic 896 in Course FFF2014J objectives
897,FFF2014J,Topic 897 in Course FFF2014J,Topic 897 in Course FFF2014J objectives
898,FFF2014J,Topic 898 in Course FFF2014J,Topic 898 in Course FFF2014J objectives
899,FFF2014J,Topic 899 in Course FFF2014J,Topic 899 in Course FFF2014J objectives
900,FFF2014J,Topic 900 in Course FFF2014J,Topic 900 in Course FFF2014J objectives
901,FFF2014J,Topic 901 in Course FFF2014J,Topic 901 in Course FFF2014J objectives
902,FFF2014J,Topic 902 in Course FFF2014J,Topic 902 in Course FFF2014J objectives
903,FFF2014J,Topic 903 in Course FFF2014J,Topic 903 in Course FFF2014J objectives
904,FFF2014J,Topic 904 in Course FFF2014J,Topic 904 in Course FFF2014J objectives
905,FFF2014J,Topic 905 in Course FFF2014J,Topic 905 in Course FFF2014J objectives
906,FFF2014J,Topic 906 in Course FFF2014J,Topic 906 in Course FFF2014J objectives
907,FFF2014J,Topic 907 in Course FFF2014J,Topic 907 in Course FFF2014J objectives
908,FFF2014J,Topic 908 in Course FFF2014J,Topic 908 in Course FFF2014J objectives
909,FFF2014J,Topic 909 in Course FFF2014J,Topic 909 in Course FFF2014J objectives
910,FFF2014J,Topic 910 in Course FFF2014J,Topic 910 in Course FFF2014J objectives
911,FFF2014J,Topic 911 in Course FFF2014J,Topic 911 in Course FFF2014J objectives
912,GGG2013J,Topic 912 in Course GGG2013J,Topic 912 in Course GGG2013J objectives
913,GGG2013J,Topic 913 in Course GGG2013J,Topic 913 in Course GGG2013J objectives
914,GGG2013J,Topic 914 in Course GGG2013J,Topic 914 in Course GGG2013J objectives
915,GGG2013J,Topic 915 in Course GGG2013J,Topic 915 in Course GGG2013J objectives
916,GGG2013J,Topic 916 in Course GGG2013J,Topic 916 in Course GGG2013J objectives
917,GGG2013J,Topic 917 in Course GGG2013J,Topic 917 in Course GGG2013J objectives
918,GGG2013J,Topic 918 in Course GGG2013J,Topic 918 in Course GGG2013J objectives
919,GGG2013J,Topic 919 in Course GGG2013J,Topic 919 in Course GGG2013J objectives
920,GGG2013J,Topic 920 in Course GGG2013J,Topic 920 in Course GGG2013J objectives
921,GGG2013J,Topic 921 in Course GGG2013J,Topic 921 in Course GGG2013J objectives
922,GGG2013J,Topic 922 in Course GGG2013J,Topic 922 in Course GGG2013J objectives
923,GGG2013J,Topic 923 in Course GGG2013J,Topic 923 in Course GGG2013J objectives
924,GGG2013J,Topic 924 in Course GGG2013J,Topic 924 in Course GGG2013J objectives
925,GGG2013J,Topic 925 in Course GGG2013J,Topic 925 in Course GGG2013J objectives
926,GGG2013J,Topic 926 in Course GGG2013J,Topic 926 in Course GGG2013J objectives
927,GGG2013J,Topic 927 in Course GGG2013J,Topic 927 in Course GGG2013J objectives
928,GGG2013J,Topic 928 in Course GGG2013J,Topic 928 in Course GGG2013J objectives
929,GGG2013J,Topic 929 in Course GGG2013J,Topic 929 in Course GGG2013J objectives
930,GGG2014B,Topic 930 in Course GGG2014B,Topic 930 in Course GGG2014B objectives
931,GGG2014B,Topic 931 in Course GGG2014B,Topic 931 in Course GGG2014B objectives
932,GGG2014B,Topic 932 in Course GGG2014B,Topic 932 in Course GGG2014B objectives
933,GGG2014B,Topic 933 in Course GGG2014B,Topic 933 in Course GGG2014B objectives
934,GGG2014B,Topic 934 in Course GGG2014B,Topic 934 in Course GGG2014B objectives
935,GGG2014B,Topic 935 in Course GGG2014B,Topic 935 in Course GGG2014B objectives
936,GGG2014B,Topic 936 in Course GGG2014B,Topic 936 in Course GGG2014B objectives
937,GGG2014B,Topic 937 in Course GGG2014B,Topic 937 in Course GGG2014B objectives
938,GGG2014B,Topic 938 in Course GGG2014B,Topic 938 in Course GGG2014B objectives
939,GGG2014B,Topic 939 in Course GGG2014B,Topic 939 in Course GGG2014B objectives
940,GGG2014B,Topic 940 in Course GGG2014B,Topic 940 in Course GGG2014B objectives
941,GGG2014B,Topic 941 in Course GGG2014B,Topic 941 in Course GGG2014B objectives
942,GGG2014B,Topic 942 in Course GGG2014B,Topic 942 in Course GGG2014B objectives
943,GGG2014B,Topic 943 in Course GGG2014B,Topic 943 in Course GGG2014B objectives
944,GGG2014B,Topic 944 in Course GGG2014B,Topic 944 in Course GGG2014B objectives
945,GGG2014B,Topic 945 in Course GGG2014B,Topic 945 in Course GGG2014B objectives
946,GGG2014B,Topic 946 in Course GGG2014B,Topic 946 in Course GGG2014B objectives
947,GGG2014B,Topic 947 in Course GGG2014B,Topic 947 in Course GGG2014B objectives
948,GGG2014J,Topic 948 in Course GGG2014J,Topic 948 in Course GGG2014J objectives
949,GGG2014J,Topic 949 in Course GGG2014J,Topic 949 in Course GGG2014J objectives
950,GGG2014J,Topic 950 in Course GGG2014J,Topic 950 in Course GGG2014J objectives
951,GGG2014J,Topic 951 in Course GGG2014J,Topic 951 in Course GGG2014J objectives
952,GGG2014J,Topic 952 in Course GGG2014J,Topic 952 in Course GGG2014J objectives
953,GGG2014J,Topic 953 in Course GGG2014J,Topic 953 in Course GGG2014J objectives
954,GGG2014J,Topic 954 in Course GGG2014J,Topic 954 in Course GGG2014J objectives
955,GGG2014J,Topic 955 in Course GGG2014J,Topic 955 in Course GGG2014J objectives
956,GGG2014J,Topic 956 in Course GGG2014J,Topic 956 in Course GGG2014J objectives
957,GGG2014J,Topic 957 in Course GGG2014J,Topic 957 in Course GGG2014J objectives
958,GGG2014J,Topic 958 in Course GGG2014J,Topic 958 in Course GGG2014J objectives
959,GGG2014J,Topic 959 in Course GGG2014J,Topic 959 in Course GGG2014J objectives
960,GGG2014J,Topic 960 in Course GGG2014J,Topic 960 in Course GGG2014J objectives
961,GGG2014J,Topic 961 in Course GGG2014J,Topic 961 in Course GGG2014J objectives