course_id,prerequisite
AAA2014J,AAA2013J
BBB2013B,AAA2014J
BBB2013J,BBB2013B
BBB2014B,BBB2013J
BBB2014J,BBB2014B
CCC2014B,BBB2014J
CCC2014J,CCC2014B
DDD2013B,CCC2014J
DDD2013J,DDD2013B
DDD2014B,DDD2013J
DDD2014J,DDD2014B
EEE2013J,DDD2014J
EEE2014B,EEE2013J
EEE2014J,EEE2014B
FFF2013B,EEE2014J
FFF2013J,FFF2013B
FFF2014B,FFF2013J
FFF2014J,FFF2014B
GGG2013J,FFF2014J
GGG2014B,GGG2013J
GGG2014J,GGG2014B